{
  "WorkItem": {
    "AffectedComponent": {
      "Name": "",
      "DisplayName": ""
    },
    "ClosedComment": "",
    "ClosedDate": null,
    "CommentCount": 1,
    "Custom": null,
    "Description": "I got this error message:@ \"Server error in '/' Application\" on the part 5, during the Modifying a Scaffolded View\r\n\r\nIt says: Unhandled exception occurred during the execution of the current web request.\r\n\r\n[InvalidOperationException: The model item passed into the dictionary is of type 'System.Collections.Generic.List`1[MvcMusicStore.Models.Artist]', but this dictionary requires a model item of type 'System.Collections.Generic.IEnumerable`1[MvcMusicStore.Models.Album]'.]\r\n   System.Web.Mvc.ViewDataDictionary`1.SetModel(Object value) +378\r\n\r\nThese are the 2 first lanes, im using MVisual Studio 2012\r\n",
    "LastUpdatedDate": "2012-09-11T11:52:00.153-07:00",
    "PlannedForRelease": "",
    "ReleaseVisibleToPublic": false,
    "Priority": {
      "Name": "Low",
      "Severity": 50,
      "Id": 1
    },
    "ProjectName": "mvcmusicstore",
    "ReportedDate": "2012-09-11T11:39:14.833-07:00",
    "Status": {
      "Name": "Proposed",
      "Id": 1
    },
    "ReasonClosed": {
      "Name": "Unassigned"
    },
    "Summary": "Unhandled exception ",
    "Type": {
      "Name": "Issue",
      "Id": 3
    },
    "VoteCount": 1,
    "Id": 6684
  },
  "FileAttachments": [],
  "Comments": [
    {
      "Message": "I find my problem, i made my StoreManagerController with model class Artist, but now, i tried deleting the last StoreManagerController and do a new one with the same name but with model class Album, but know it says :\n\nThe model backing the 'Models_' context has changed since the database was created. Consider using Code First Migrations to update the database (http://go.microsoft.com/fwlink/?LinkId=238269).\n\n",
      "PostedDate": "2012-09-11T11:52:00.153-07:00",
      "Id": 76699
    }
  ]
}