{
  "WorkItem": {
    "AffectedComponent": {
      "Name": "",
      "DisplayName": ""
    },
    "ClosedComment": "",
    "ClosedDate": null,
    "CommentCount": 0,
    "Custom": null,
    "Description": "Hello. I am totally new to asp so my question might be stupid. I created new controller so I can browse/update/delete orders in my store. If someone purchase two or more items, it takes two rows in database to store data. When I am going to 'details' view I can only display one of the purchased items. When im trying to use foreach loop I am getting this error: \"foreach statement cannot operate on variables of type 'ss.Models.OrderDetail' because 'ss.Models.OrderDetail' does not contain a public definition for 'GetEnumerator'\". Any advice how can I display all the purchased items?\r\n I tried to use List view instead of Details but I failed.",
    "LastUpdatedDate": "2011-02-27T05:53:10.177-08:00",
    "PlannedForRelease": "",
    "ReleaseVisibleToPublic": false,
    "Priority": {
      "Name": "Low",
      "Severity": 50,
      "Id": 1
    },
    "ProjectName": "mvcmusicstore",
    "ReportedDate": "2011-02-10T01:04:29.047-08:00",
    "Status": {
      "Name": "Proposed",
      "Id": 1
    },
    "ReasonClosed": {
      "Name": "Unassigned"
    },
    "Summary": "Order controller",
    "Type": {
      "Name": "Issue",
      "Id": 3
    },
    "VoteCount": 1,
    "Id": 6627
  },
  "FileAttachments": [],
  "Comments": []
}