[
  {
    "Id": "475018",
    "ThreadId": "222074",
    "Html": "<p>Great tutorila, learning alot from it!</p>\r\n<p>&nbsp;</p>\r\n<p>Quick question in the following code:</p>\r\n<pre><span style=\"color:blue\">public</span> ActionResult Index()\r\n{\r\n<span style=\"color:blue\">var</span> albums = storeDB.Albums\r\n.Include(<span style=\"color:#a31515\">&quot;Genre&quot;</span>).Include(<span style=\"color:#a31515\">&quot;Artist&quot;</span>)\r\n.ToList();\r\n<span style=\"color:blue\">return</span> View(albums);\r\n}\r\n</pre>\r\n<p>This generates a list of albums, if I want to add a .where clause to say for example just want to list the albums from the G0-G0's, How would I accomplish this.</p>\r\n<p>&nbsp;</p>\r\n<p>Also supposed I want to restrict the list to a particuliar session id as a favorites oprion.&nbsp; If I had a session is created as glenn) how could I restrict the list to say album.Names == Glenn</p>\r\n<p>&nbsp;</p>\r\n<p>Thanks</p>\r\n<p>&nbsp;</p>",
    "PostedDate": "2010-07-31T07:17:31.477-07:00",
    "UserRole": null,
    "MarkedAsAnswerDate": null
  }
]