[
  {
    "Id": "517206",
    "ThreadId": "233520",
    "Html": "\r\n<p>Hello Mr Jon Galloway and all pupils,</p>\r\n<p>After filling cart, when I checkout, I'm prompted to register. But It irremediably fails with this error message:</p>\r\n<div><span>&quot;</span></div>\r\n<div><span>Account creation was unsuccessful. Please correct the errors and try again.</span></div>\r\n<div>\r\n<ul>\r\n<li>The password retrieval answer provided is invalid. Please check the value and try again.\r\n</li></ul>\r\n</div>\r\n<p>&quot;</p>\r\n<p>I've explored the account files but I haven't&nbsp;found anything related to the password retrieval question/answer.&nbsp;Same search and same result with ASP.net Administration Tool. The only moment I can see such fields is when I'm creating a new user\r\n with ASP.net Administration Tool as in the tutorial.</p>\r\n<p>I'm using the downloaded version of MusicStore v1.0&nbsp;with VWD 2010 Express French version. Anyone with the same issue ?</p>\r\n<p>Thanks in advance for your help.</p>\r\n",
    "PostedDate": "2010-11-04T10:42:41.073-07:00",
    "UserRole": null,
    "MarkedAsAnswerDate": null
  },
  {
    "Id": "517279",
    "ThreadId": "233520",
    "Html": "\r\n<p>When you click on the Register link, you should see a form that prompts you to enter&nbsp;four fields:</p>\r\n<ul>\r\n<li>User name </li><li>Email address </li><li>Password </li><li>Confirm password </li></ul>\r\n<p>The default password policy requires that you include a number and a non-numeric password, e.g. password123!</p>\r\n<p>Does your password meet that policy?</p>\r\n<p>&nbsp;</p>\r\n<p>&nbsp;</p>\r\n",
    "PostedDate": "2010-11-04T12:49:40.667-07:00",
    "UserRole": null,
    "MarkedAsAnswerDate": null
  },
  {
    "Id": "517723",
    "ThreadId": "233520",
    "Html": "\r\n<p>Yes.</p>\r\n<p>Eg:</p>\r\n<p>User name (text field): Thomas</p>\r\n<p>Email (text field): <a href=\"mailto:thomas@domain.com\">thomas@domain.com</a></p>\r\n<p>Password (password field): password456!</p>\r\n<p>Confirm password (password field): password456!</p>\r\n<p>Fails with&nbsp;the above error message.</p>\r\n",
    "PostedDate": "2010-11-05T08:15:03.483-07:00",
    "UserRole": null,
    "MarkedAsAnswerDate": null
  },
  {
    "Id": "517770",
    "ThreadId": "233520",
    "Html": "\r\n<p>There's a setting to require membersip question and answer, which I believe should be false in a default MVC 2 project. Can you check your the membership section of your web.config? It should look like this (note that requiresQuestionAndAnswer=&quot;false&quot;):</p>\r\n<div style=\"color:black; background-color:white\">\r\n<div style=\"color:black; background-color:white\">\r\n<pre><span style=\"color:blue\">&lt;</span><span style=\"color:#a31515\">membership</span><span style=\"color:blue\">&gt;</span>\r\n  <span style=\"color:blue\">&lt;</span><span style=\"color:#a31515\">providers</span><span style=\"color:blue\">&gt;</span>\r\n\t<span style=\"color:blue\">&lt;</span><span style=\"color:#a31515\">clear</span> <span style=\"color:blue\">/&gt;</span>\r\n\t<span style=\"color:blue\">&lt;</span><span style=\"color:#a31515\">add</span> <span style=\"color:red\">name</span><span style=\"color:blue\">=</span><span style=\"color:black\">&quot;</span><span style=\"color:blue\">AspNetSqlMembershipProvider</span><span style=\"color:black\">&quot;</span>\r\n\t<span style=\"color:red\">type</span><span style=\"color:blue\">=</span><span style=\"color:black\">&quot;</span><span style=\"color:blue\">System.Web.Security.SqlMembershipProvider</span><span style=\"color:black\">&quot;</span>\r\n\t<span style=\"color:red\">connectionStringName</span><span style=\"color:blue\">=</span><span style=\"color:black\">&quot;</span><span style=\"color:blue\">ApplicationServices</span><span style=\"color:black\">&quot;</span> <span style=\"color:red\">enablePasswordRetrieval</span><span style=\"color:blue\">=</span><span style=\"color:black\">&quot;</span><span style=\"color:blue\">false</span><span style=\"color:black\">&quot;</span>\r\n\t<span style=\"color:red\">enablePasswordReset</span><span style=\"color:blue\">=</span><span style=\"color:black\">&quot;</span><span style=\"color:blue\">true</span><span style=\"color:black\">&quot;</span> <span style=\"color:red\">requiresQuestionAndAnswer</span><span style=\"color:blue\">=</span><span style=\"color:black\">&quot;</span><span style=\"color:blue\">false</span><span style=\"color:black\">&quot;</span>\r\n\t<span style=\"color:red\">requiresUniqueEmail</span><span style=\"color:blue\">=</span><span style=\"color:black\">&quot;</span><span style=\"color:blue\">false</span><span style=\"color:black\">&quot;</span> <span style=\"color:red\">maxInvalidPasswordAttempts</span><span style=\"color:blue\">=</span><span style=\"color:black\">&quot;</span><span style=\"color:blue\">5</span><span style=\"color:black\">&quot;</span>\r\n\t<span style=\"color:red\">minRequiredPasswordLength</span><span style=\"color:blue\">=</span><span style=\"color:black\">&quot;</span><span style=\"color:blue\">6</span><span style=\"color:black\">&quot;</span> <span style=\"color:red\">minRequiredNonalphanumericCharacters</span><span style=\"color:blue\">=</span><span style=\"color:black\">&quot;</span><span style=\"color:blue\">0</span><span style=\"color:black\">&quot;</span>\r\n\t<span style=\"color:red\">passwordAttemptWindow</span><span style=\"color:blue\">=</span><span style=\"color:black\">&quot;</span><span style=\"color:blue\">10</span><span style=\"color:black\">&quot;</span> <span style=\"color:red\">applicationName</span><span style=\"color:blue\">=</span><span style=\"color:black\">&quot;</span><span style=\"color:blue\">/</span><span style=\"color:black\">&quot;</span> <span style=\"color:blue\">/&gt;</span>\r\n  <span style=\"color:blue\">&lt;/</span><span style=\"color:#a31515\">providers</span><span style=\"color:blue\">&gt;</span>\r\n<span style=\"color:blue\">&lt;/</span><span style=\"color:#a31515\">membership</span><span style=\"color:blue\">&gt;</span></pre>\r\n</div>\r\n</div>\r\n",
    "PostedDate": "2010-11-05T09:23:36.52-07:00",
    "UserRole": null,
    "MarkedAsAnswerDate": null
  },
  {
    "Id": "517831",
    "ThreadId": "233520",
    "Html": "\r\n<p>As you told me, I could check that&nbsp;such a&nbsp;section does exist in a default MVC2 project.</p>\r\n<p>Nevertheless, I could check that web.config file in your downloadable project is still the same as mine and doesn't contain the above section.</p>\r\n<p>Furthermore, adding this section &quot;as is&quot; raises a server error when &quot;Checkout&gt;&gt;&quot; button is pressed:</p>\r\n<p>&quot;Connexion name&nbsp;'ApplicationServices' can't be found in applications configuration,&nbsp;or connection string is empty. &quot;</p>\r\n<p>with the sixth line of the above code hilighted.</p>\r\n<p>Next I've replaced connectionStringName 'ApplicationServices' by &quot;MusicStoreEntities&quot; and then managed to view Register form.</p>\r\n<p>But, on validation, VWD Debugger stops with an error pointing CreateUser method from AccountModels.cs and a message nearly the same as previous one:</p>\r\n<p>&quot;ArgumentException exception wasn't managed by user code. An error occurred&nbsp;attempting to initialize a System.Data.SqlClient.SqlConnection object. Incorrect value or invalid syntax.&nbsp;Parameter name:&nbsp;connectionString.&quot;</p>\r\n<p>Press F5 to continue causes server to stop with message &quot; System.ArgumentException:&nbsp;Unmanaged keyword&nbsp;: 'metadata' &quot;</p>\r\n<p>Could you help me, one more time please&nbsp;?&nbsp; Thanks in advance.</p>\r\n",
    "PostedDate": "2010-11-05T11:03:57.27-07:00",
    "UserRole": null,
    "MarkedAsAnswerDate": null
  },
  {
    "Id": "519444",
    "ThreadId": "233520",
    "Html": "\r\n<p>I just downloaded the MVC store archive and I can confirm that web.config does NOT contain a 'membership' section.</p>\r\n<p>Registration fails with the message &quot;The password retrieval answer provided is invalid. Please check the value and try again.&quot;</p>\r\n<p>&nbsp;</p>\r\n<p>please post a fix. Thanks !</p>\r\n<p>&nbsp;</p>\r\n<p>EDIT:</p>\r\n<p>I looked at changeset 2217b2db4a2b and compared it to the previous version - it is apparent that the 'membership' section was taken out.</p>\r\n",
    "PostedDate": "2010-11-09T09:42:32.32-08:00",
    "UserRole": null,
    "MarkedAsAnswerDate": null
  },
  {
    "Id": "519939",
    "ThreadId": "233520",
    "Html": "\r\n<div style=\"color:black; background-color:white\">\r\n<pre><span style=\"color:blue\">&lt;</span><span style=\"color:#a31515\">connectionStrings</span><span style=\"color:blue\">&gt;</span></pre>\r\n<pre><span style=\"color:blue\">\t&lt;</span><span style=\"color:#a31515\">add</span> <span style=\"color:red\">name</span><span style=\"color:blue\">=</span><span style=\"color:black\">&quot;</span><span style=\"color:blue\">MusicStoreEntities</span><span style=\"color:black\">&quot;</span> </pre>\r\n<pre>\t\t<span style=\"color:red\">connectionString</span><span style=\"color:blue\">=</span><span style=\"color:black\">&quot;</span><span style=\"color:blue\">metadata=res://*/Models.StoreDB.csdl|res://*/Models.StoreDB.ssdl|res://*/Models.StoreDB.msl;provider=System.Data.SqlClient;provider connection string=&amp;quot;Data Source=.\\SQLEXPRESS;AttachDbFilename=|DataDirectory|\\MvcMusicStore.mdf;Integrated Security=True;User Instance=True;MultipleActiveResultSets=True&amp;quot;</span><span style=\"color:black\">&quot;</span> </pre>\r\n<pre>\t\t<span style=\"color:red\">providerName</span><span style=\"color:blue\">=</span><span style=\"color:black\">&quot;</span><span style=\"color:blue\">System.Data.EntityClient</span><span style=\"color:black\">&quot;</span> <span style=\"color:blue\">/&gt;</span></pre>\r\n<pre><span style=\"color:blue\">\t</span> <span style=\"color:blue\">&lt;</span><span style=\"color:#a31515\">add</span> <span style=\"color:red\">name</span><span style=\"color:blue\">=</span><span style=\"color:black\">&quot;</span><span style=\"color:blue\">ApplicationServices</span><span style=\"color:black\">&quot;</span></pre>\r\n<pre><span style=\"color:red\">\t\tconnectionString</span><span style=\"color:blue\">=</span><span style=\"color:black\">&quot;</span><span style=\"color:blue\">data source=.\\SQLEXPRESS;Integrated Security=SSPI;AttachDBFilename=|DataDirectory|aspnetdb.mdf;User Instance=true</span><span style=\"color:black\">&quot;</span> </pre>\r\n<pre>\t\t<span style=\"color:red\">providerName</span><span style=\"color:blue\">=</span><span style=\"color:black\">&quot;</span><span style=\"color:blue\">System.Data.SqlClient</span><span style=\"color:black\">&quot;</span> <span style=\"color:blue\">/&gt;</span> </pre>\r\n<pre><span style=\"color:blue\">&lt;/</span><span style=\"color:#a31515\">connectionStrings</span><span style=\"color:blue\">&gt;</span></pre>\r\n<pre>Here's connectionString section from Web.config in the previous version (beta).</pre>\r\n<pre>ApplicationServices connectionString was obviously also defined in a default MVC2 project.</pre>\r\n<pre>Then bug is definately fixed.</pre>\r\n<pre>Thanks both.</pre>\r\n</div>\r\n",
    "PostedDate": "2010-11-10T06:10:06.26-08:00",
    "UserRole": null,
    "MarkedAsAnswerDate": null
  },
  {
    "Id": "522088",
    "ThreadId": "233520",
    "Html": "\r\n<p>Hi,</p>\r\n<p>&nbsp;</p>\r\n<p>I am also having the same issue with this tutorial - the user registration does not include fields for question and answer, but when posted, responds with the above error message.</p>\r\n<p>I have tried your fix - adding the &quot;ApplicationServices&quot; section to web.config but this made no difference I'm afraid.</p>\r\n<p>It squawked quite badly when I tried to add the &lt;membership&gt; section from the top of the page.</p>\r\n<p>I could not use your example &quot;MusicStoreEntities&quot; code as my connection string is different from yours - it connects to a&nbsp;SQL instance, not Express.</p>\r\n<p>I would really like to complete this tutorial, so any further information on how to circumvent this problem would be greatly appreciated.</p>\r\n<p>Thanks,</p>\r\n<p>Tim</p>\r\n",
    "PostedDate": "2010-11-15T05:23:37.443-08:00",
    "UserRole": null,
    "MarkedAsAnswerDate": null
  },
  {
    "Id": "522234",
    "ThreadId": "233520",
    "Html": "\r\n<p>Tim,</p>\r\n<p>There's no relation between &quot;MusicStoreEntities&quot; and present bug.</p>\r\n<p>If you can correctly see Album list and details from your Home page or Cart page then your MusicStoreEntities connection string is functional, of course.</p>\r\n<p>This bug (in my case, every other code from project was functional)&nbsp;was only due to an uncompleted&nbsp;web.config file.</p>\r\n<p>Have you tried to take web.config file directly from&nbsp;the oldest&nbsp;version of&nbsp;the project (current version&nbsp;has also an uncompleted web.config file: that was the issue i&nbsp;faced)&nbsp;?</p>\r\n<p>You'll just have to replace original MusicStoreEntities connection string by yours, if I understand what you say.</p>\r\n<p>Tell me.</p>\r\n",
    "PostedDate": "2010-11-15T09:34:21.08-08:00",
    "UserRole": null,
    "MarkedAsAnswerDate": null
  },
  {
    "Id": "523114",
    "ThreadId": "233520",
    "Html": "\r\n<p>Hi Thomas,</p>\r\n<p>That worked fine thank you. I downloaded&nbsp;version v.08&nbsp;from here <a href=\"http://mvcmusicstore.codeplex.com/releases/view/44445\">\r\nhttp://mvcmusicstore.codeplex.com/releases/view/44445</a>&nbsp;and copied the &lt;membership&gt; section into the Web.config file. This worked fine for me.</p>\r\n<p>Many thanks for your help in this.</p>\r\n<p>Tim</p>\r\n",
    "PostedDate": "2010-11-17T01:46:17.34-08:00",
    "UserRole": null,
    "MarkedAsAnswerDate": null
  },
  {
    "Id": "548205",
    "ThreadId": "233520",
    "Html": "\r\n<p>I had the same problem also. Im happy with the fix, but how can i reference the Password/Question fields for future use for my Model/View?? Checked the AccountModel.cs and there is no reference to these fields anywhere.</p>\r\n",
    "PostedDate": "2011-01-12T11:49:24.023-08:00",
    "UserRole": null,
    "MarkedAsAnswerDate": null
  },
  {
    "Id": "557571",
    "ThreadId": "233520",
    "Html": "\r\n<p>In my case using MVC 3 example i needed to change in AccountModels.cs line 127 this:</p>\r\n<p><span style=\"font-family:Consolas; font-size:x-small\"><span style=\"font-family:Consolas; font-size:x-small\"><span style=\"font-family:Consolas; font-size:x-small\"></p>\r\n<p>&nbsp;</p>\r\n<div style=\"color:black; background-color:white\">\r\n<pre> MembershipCreateStatus status;\r\n            _provider.CreateUser(userName, password, email, <span style=\"color:#a31515\">&quot;question&quot;</span>, <span style=\"color:#a31515\">&quot;answer&quot;</span>, <span style=\"color:blue\">true</span>, <span style=\"color:blue\">null</span>, <span style=\"color:blue\">out</span> status);\r\n            <span style=\"color:blue\">return</span> status;\r\n</pre>\r\n</div>\r\n</span></span></span>\r\n<p></p>\r\n<p><span style=\"font-family:Consolas; color:#2b91af; font-size:x-small\"><span style=\"font-family:Consolas; color:#2b91af; font-size:x-small\"><span style=\"font-family:Consolas; color:#2b91af; font-size:x-small\">MembershipCreateStatus</span></span></span><span style=\"font-family:Consolas; font-size:x-small\">\r\n<span style=\"font-family:Consolas; font-size:x-small\">status;<span style=\"font-family:Consolas; font-size:x-small\">\r\n<span style=\"font-family:Consolas; font-size:x-small\"><span style=\"font-family:Consolas; font-size:x-small\"><span style=\"font-family:Consolas; font-size:x-small\"><span style=\"font-family:Consolas; font-size:x-small\"><span style=\"font-family:Consolas; font-size:x-small\"><span style=\"font-family:Consolas; font-size:x-small\"><font face=\"Consolas\" size=\"2\"></p>\r\n<p></p>\r\n<p>&nbsp;</p>\r\n<p><span style=\"font-family:Consolas; font-size:x-small\"><span style=\"font-family:Consolas; font-size:x-small\"><span style=\"font-family:Consolas; font-size:x-small\"><span style=\"font-family:Consolas; font-size:x-small\"><span style=\"font-family:Consolas; font-size:x-small\"><span style=\"font-family:Consolas; font-size:x-small\"><span style=\"font-family:Consolas; font-size:x-small\">&nbsp;</span></span></span></span></span></span></span></p>\r\n<span style=\"font-family:Consolas; font-size:x-small\">Hope this helps </span>\r\n<p></p>\r\n</font></span></span></span></span><span style=\"font-family:Consolas; font-size:x-small\"><span style=\"font-family:Consolas; font-size:x-small\">status;</span></span></span></span></span></span></span>\r\n<p></p>\r\n",
    "PostedDate": "2011-01-30T04:46:43.643-08:00",
    "UserRole": null,
    "MarkedAsAnswerDate": null
  },
  {
    "Id": "576156",
    "ThreadId": "233520",
    "Html": "<p>Where and How is the Default Password Policy Set?</p>\r\n<p>&nbsp;</p>",
    "PostedDate": "2011-03-05T17:02:29.33-08:00",
    "UserRole": null,
    "MarkedAsAnswerDate": null
  },
  {
    "Id": "576177",
    "ThreadId": "233520",
    "Html": "<p>OneHip,</p>\r\n<p>Check out the November 5 post, that is in your web config file.</p>",
    "PostedDate": "2011-03-05T19:35:25.253-08:00",
    "UserRole": null,
    "MarkedAsAnswerDate": null
  },
  {
    "Id": "576310",
    "ThreadId": "233520",
    "Html": "<p>Thanks madisonJames. I didn't catch that</p>",
    "PostedDate": "2011-03-06T09:09:34.763-08:00",
    "UserRole": null,
    "MarkedAsAnswerDate": null
  },
  {
    "Id": "623712",
    "ThreadId": "233520",
    "Html": "<p>\r\n<p>this can be solved by doing the following:</p>\r\n</p>\r\n<p>adding entries for Question and Anser to the Register Model on AccountModels.cs and labels/textboxes of Register.cshtml files</p>\r\n<p>and also in AccountModels change the IMembershipService to</p>\r\n<div style=\"color: black; background-color: white;\">\r\n<pre><span style=\"color: blue;\">public</span> <span style=\"color: blue;\">interface</span> IMembershipService\r\n    {\r\n        <span style=\"color: blue;\">int</span> MinPasswordLength { <span style=\"color: blue;\">get</span>; }\r\n\r\n        <span style=\"color: blue;\">bool</span> ValidateUser(<span style=\"color: blue;\">string</span> userName, <span style=\"color: blue;\">string</span> password);\r\n        MembershipCreateStatus CreateUser(<span style=\"color: blue;\">string</span> userName, <span style=\"color: blue;\">string</span> password, <span style=\"color: blue;\">string</span> email, <span style=\"color: blue;\">string</span> passwordQuestion, <span style=\"color: blue;\">string</span> passwordAnswer);\r\n        <span style=\"color: blue;\">bool</span> ChangePassword(<span style=\"color: blue;\">string</span> userName, <span style=\"color: blue;\">string</span> oldPassword, <span style=\"color: blue;\">string</span> newPassword);\r\n    }\r\n\r\n</pre>\r\n</div>\r\n<p>and the MembershipCreateUser to</p>\r\n<div style=\"color: black; background-color: white;\">\r\n<pre> <span style=\"color: blue;\">public</span> MembershipCreateStatus CreateUser(<span style=\"color: blue;\">string</span> userName, <span style=\"color: blue;\">string</span> password, <span style=\"color: blue;\">string</span> email, <span style=\"color: blue;\">string</span> passwordQuestion, <span style=\"color: blue;\">string</span> passwordAnswer)\r\n        {\r\n            <span style=\"color: blue;\">if</span> (String.IsNullOrEmpty(userName)) <span style=\"color: blue;\">throw</span> <span style=\"color: blue;\">new</span> ArgumentException(<span style=\"color: #a31515;\">\"Value cannot be null or empty.\"</span>, <span style=\"color: #a31515;\">\"userName\"</span>);\r\n            <span style=\"color: blue;\">if</span> (String.IsNullOrEmpty(password)) <span style=\"color: blue;\">throw</span> <span style=\"color: blue;\">new</span> ArgumentException(<span style=\"color: #a31515;\">\"Value cannot be null or empty.\"</span>, <span style=\"color: #a31515;\">\"password\"</span>);\r\n            <span style=\"color: blue;\">if</span> (String.IsNullOrEmpty(email)) <span style=\"color: blue;\">throw</span> <span style=\"color: blue;\">new</span> ArgumentException(<span style=\"color: #a31515;\">\"Value cannot be null or empty.\"</span>, <span style=\"color: #a31515;\">\"email\"</span>);\r\n            <span style=\"color: blue;\">if</span> (String.IsNullOrEmpty(passwordQuestion)) <span style=\"color: blue;\">throw</span> <span style=\"color: blue;\">new</span> ArgumentException(<span style=\"color: #a31515;\">\"Value cannot be null or empty.\"</span>, <span style=\"color: #a31515;\">\"passwordQuestion\"</span>);\r\n            <span style=\"color: blue;\">if</span> (String.IsNullOrEmpty(passwordAnswer)) <span style=\"color: blue;\">throw</span> <span style=\"color: blue;\">new</span> ArgumentException(<span style=\"color: #a31515;\">\"Value cannot be null or empty.\"</span>, <span style=\"color: #a31515;\">\"passwordAnswer\"</span>);            \r\n\r\n            MembershipCreateStatus status;\r\n            _provider.CreateUser(userName, password, email, passwordQuestion, passwordAnswer, <span style=\"color: blue;\">true</span>, <span style=\"color: blue;\">null</span>, <span style=\"color: blue;\">out</span> status);\r\n            <span style=\"color: blue;\">return</span> status;\r\n        }\r\n</pre>\r\n</div>",
    "PostedDate": "2011-06-06T13:15:20.413-07:00",
    "UserRole": null,
    "MarkedAsAnswerDate": null
  },
  {
    "Id": "624893",
    "ThreadId": "233520",
    "Html": "<p>Can you provide the changes you made to Register.cshtml?</p>",
    "PostedDate": "2011-06-08T11:40:18.45-07:00",
    "UserRole": null,
    "MarkedAsAnswerDate": null
  },
  {
    "Id": "626279",
    "ThreadId": "233520",
    "Html": "<p>The simplest way to get this working is to copy in the AccountModels.cs from the Assets folder - it's already set up to handle the question and answer. Otherwise, you make he change <a class=\"UserProfileLink\" href=\"http://www.codeplex.com/site/users/view/acidutzu\">acidutzu</a>&nbsp;suggested above.</p>",
    "PostedDate": "2011-06-10T23:19:52.707-07:00",
    "UserRole": null,
    "MarkedAsAnswerDate": null
  },
  {
    "Id": "698014",
    "ThreadId": "233520",
    "Html": "<p>I have discovered the real reason why the \"Account creation was unsuccessful. Please correct the errors and try again.&nbsp;The password retrieval answer provided is invalid. Please check the value and try again.\"&nbsp;</p>\r\n<p>appears every time you try to check out in MVC Music Store. It's actually quite simple though I am not sure why they never caught when they put the Music Store code out in the first place....</p>\r\n<p>Take a look at the code</p>\r\n<pre>&lt;<span>fieldset</span>&gt;\r\n&nbsp;&nbsp;&nbsp;&nbsp;&nbsp;&nbsp;&nbsp;&nbsp;&nbsp;&nbsp;&nbsp;&nbsp;&lt;<span>legend</span>&gt;Account&nbsp;Information&lt;/<span>legend</span>&gt;\r\n \r\n&nbsp;&nbsp;&nbsp;&nbsp;&nbsp;&nbsp;&nbsp;&nbsp;&nbsp;&nbsp;&nbsp;&nbsp;&lt;<span>div</span>&nbsp;<span>class</span><span>=</span><span>\"editor-label\"</span>&gt;\r\n&nbsp;&nbsp;&nbsp;&nbsp;&nbsp;&nbsp;&nbsp;&nbsp;&nbsp;&nbsp;&nbsp;&nbsp;&nbsp;&nbsp;&nbsp;&nbsp;<span>@</span>Html<span>.</span>LabelFor(m&nbsp;<span>=&gt;</span>&nbsp;m<span>.</span>UserName)\r\n&nbsp;&nbsp;&nbsp;&nbsp;&nbsp;&nbsp;&nbsp;&nbsp;&nbsp;&nbsp;&nbsp;&nbsp;&lt;/<span>div</span>&gt;\r\n&nbsp;&nbsp;&nbsp;&nbsp;&nbsp;&nbsp;&nbsp;&nbsp;&nbsp;&nbsp;&nbsp;&nbsp;&lt;<span>div</span>&nbsp;<span>class</span><span>=</span><span>\"editor-field\"</span>&gt;\r\n&nbsp;&nbsp;&nbsp;&nbsp;&nbsp;&nbsp;&nbsp;&nbsp;&nbsp;&nbsp;&nbsp;&nbsp;&nbsp;&nbsp;&nbsp;&nbsp;<span>@</span>Html<span>.</span>TextBoxFor(m&nbsp;<span>=&gt;</span>&nbsp;m<span>.</span>UserName)\r\n&nbsp;&nbsp;&nbsp;&nbsp;&nbsp;&nbsp;&nbsp;&nbsp;&nbsp;&nbsp;&nbsp;&nbsp;&nbsp;&nbsp;&nbsp;&nbsp;<span>@</span>Html<span>.</span>ValidationMessageFor(m&nbsp;<span>=&gt;</span>&nbsp;m<span>.</span>UserName)\r\n&nbsp;&nbsp;&nbsp;&nbsp;&nbsp;&nbsp;&nbsp;&nbsp;&nbsp;&nbsp;&nbsp;&nbsp;&lt;/<span>div</span>&gt;\r\n \r\n&nbsp;&nbsp;&nbsp;&nbsp;&nbsp;&nbsp;&nbsp;&nbsp;&nbsp;&nbsp;&nbsp;&nbsp;&lt;<span>div</span>&nbsp;<span>class</span><span>=</span><span>\"editor-label\"</span>&gt;\r\n&nbsp;&nbsp;&nbsp;&nbsp;&nbsp;&nbsp;&nbsp;&nbsp;&nbsp;&nbsp;&nbsp;&nbsp;&nbsp;&nbsp;&nbsp;&nbsp;<span>@</span>Html<span>.</span>LabelFor(m&nbsp;<span>=&gt;</span>&nbsp;m<span>.</span>Email)\r\n&nbsp;&nbsp;&nbsp;&nbsp;&nbsp;&nbsp;&nbsp;&nbsp;&nbsp;&nbsp;&nbsp;&nbsp;&lt;/<span>div</span>&gt;\r\n&nbsp;&nbsp;&nbsp;&nbsp;&nbsp;&nbsp;&nbsp;&nbsp;&nbsp;&nbsp;&nbsp;&nbsp;&lt;<span>div</span>&nbsp;<span>class</span><span>=</span><span>\"editor-field\"</span>&gt;\r\n&nbsp;&nbsp;&nbsp;&nbsp;&nbsp;&nbsp;&nbsp;&nbsp;&nbsp;&nbsp;&nbsp;&nbsp;&nbsp;&nbsp;&nbsp;&nbsp;<span>@</span>Html<span>.</span>TextBoxFor(m&nbsp;<span>=&gt;</span>&nbsp;m<span>.</span>Email)\r\n&nbsp;&nbsp;&nbsp;&nbsp;&nbsp;&nbsp;&nbsp;&nbsp;&nbsp;&nbsp;&nbsp;&nbsp;&nbsp;&nbsp;&nbsp;&nbsp;<span>@</span>Html<span>.</span>ValidationMessageFor(m&nbsp;<span>=&gt;</span>&nbsp;m<span>.</span>Email)\r\n&nbsp;&nbsp;&nbsp;&nbsp;&nbsp;&nbsp;&nbsp;&nbsp;&nbsp;&nbsp;&nbsp;&nbsp;&lt;/<span>div</span>&gt;\r\n \r\n&nbsp;&nbsp;&nbsp;&nbsp;&nbsp;&nbsp;&nbsp;&nbsp;&nbsp;&nbsp;&nbsp;&nbsp;&lt;<span>div</span>&nbsp;<span>class</span><span>=</span><span>\"editor-label\"</span>&gt;\r\n&nbsp;&nbsp;&nbsp;&nbsp;&nbsp;&nbsp;&nbsp;&nbsp;&nbsp;&nbsp;&nbsp;&nbsp;&nbsp;&nbsp;&nbsp;&nbsp;<span>@</span>Html<span>.</span>LabelFor(m&nbsp;<span>=&gt;</span>&nbsp;m<span>.</span>Password)\r\n&nbsp;&nbsp;&nbsp;&nbsp;&nbsp;&nbsp;&nbsp;&nbsp;&nbsp;&nbsp;&nbsp;&nbsp;&lt;/<span>div</span>&gt;\r\n&nbsp;&nbsp;&nbsp;&nbsp;&nbsp;&nbsp;&nbsp;&nbsp;&nbsp;&nbsp;&nbsp;&nbsp;&lt;<span>div</span>&nbsp;<span>class</span><span>=</span><span>\"editor-field\"</span>&gt;\r\n&nbsp;&nbsp;&nbsp;&nbsp;&nbsp;&nbsp;&nbsp;&nbsp;&nbsp;&nbsp;&nbsp;&nbsp;&nbsp;&nbsp;&nbsp;&nbsp;<span>@</span>Html<span>.</span>PasswordFor(m&nbsp;<span>=&gt;</span>&nbsp;m<span>.</span>Password)\r\n&nbsp;&nbsp;&nbsp;&nbsp;&nbsp;&nbsp;&nbsp;&nbsp;&nbsp;&nbsp;&nbsp;&nbsp;&nbsp;&nbsp;&nbsp;&nbsp;<span>@</span>Html<span>.</span>ValidationMessageFor(m&nbsp;<span>=&gt;</span>&nbsp;m<span>.</span>Password)\r\n&nbsp;&nbsp;&nbsp;&nbsp;&nbsp;&nbsp;&nbsp;&nbsp;&nbsp;&nbsp;&nbsp;&nbsp;&lt;/<span>div</span>&gt;\r\n \r\n&nbsp;&nbsp;&nbsp;&nbsp;&nbsp;&nbsp;&nbsp;&nbsp;&nbsp;&nbsp;&nbsp;&nbsp;&lt;<span>div</span>&nbsp;<span>class</span><span>=</span><span>\"editor-label\"</span>&gt;\r\n&nbsp;&nbsp;&nbsp;&nbsp;&nbsp;&nbsp;&nbsp;&nbsp;&nbsp;&nbsp;&nbsp;&nbsp;&nbsp;&nbsp;&nbsp;&nbsp;<span>@</span>Html<span>.</span>LabelFor(m&nbsp;<span>=&gt;</span>&nbsp;m<span>.</span>ConfirmPassword)\r\n&nbsp;&nbsp;&nbsp;&nbsp;&nbsp;&nbsp;&nbsp;&nbsp;&nbsp;&nbsp;&nbsp;&nbsp;&lt;/<span>div</span>&gt;\r\n&nbsp;&nbsp;&nbsp;&nbsp;&nbsp;&nbsp;&nbsp;&nbsp;&nbsp;&nbsp;&nbsp;&nbsp;&lt;<span>div</span>&nbsp;<span>class</span><span>=</span><span>\"editor-field\"</span>&gt;\r\n&nbsp;&nbsp;&nbsp;&nbsp;&nbsp;&nbsp;&nbsp;&nbsp;&nbsp;&nbsp;&nbsp;&nbsp;&nbsp;&nbsp;&nbsp;&nbsp;<span>@</span>Html<span>.</span>PasswordFor(m&nbsp;<span>=&gt;</span>&nbsp;m<span>.</span>ConfirmPassword)\r\n&nbsp;&nbsp;&nbsp;&nbsp;&nbsp;&nbsp;&nbsp;&nbsp;&nbsp;&nbsp;&nbsp;&nbsp;&nbsp;&nbsp;&nbsp;&nbsp;<span>@</span>Html<span>.</span>ValidationMessageFor(m&nbsp;<span>=&gt;</span>&nbsp;m<span>.</span>ConfirmPassword)\r\n&nbsp;&nbsp;&nbsp;&nbsp;&nbsp;&nbsp;&nbsp;&nbsp;&nbsp;&nbsp;&nbsp;&nbsp;&lt;/<span>div</span>&gt;</pre>\r\n<pre>&lt;/fieldset&gt;</pre>\r\n<p>Notice that the classes are all expecting to the SAME parameter! I tested and registered an account as follows:</p>\r\n<p>Username: Test123@test.com</p>\r\n<p>Email: Test123@test.com</p>\r\n<p>Password: Test123@test.com</p>\r\n<p>Confirm Password: Test123@test.com</p>\r\n<p>Worked like a charm. So the issue is that you need to change the parameters each expression is taking.</p>\r\n<p>Hopefully this will help. :-)</p>\r\n<p>&nbsp;</p>\r\n<p>&nbsp;</p>",
    "PostedDate": "2011-11-14T11:27:36.327-08:00",
    "UserRole": null,
    "MarkedAsAnswerDate": null
  },
  {
    "Id": "701362",
    "ThreadId": "233520",
    "Html": "<p>Scratch that above. If you change the parameters it will not work. It does work when you enter the fields in like I said at the bottom. I just disabled the authentication in the web.config and continued past the registration issue.</p>",
    "PostedDate": "2011-11-21T10:53:58.793-08:00",
    "UserRole": null,
    "MarkedAsAnswerDate": null
  }
]