[
  {
    "Id": "540758",
    "ThreadId": "239639",
    "Html": "\r\n<p>Hi there, I have a question in Using Data Annotations.</p>\r\n<p>&nbsp;</p>\r\n<p>in fllowing code:</p>\r\n<p>namespace MvcMusicStore.Models<br>\r\n{<br>\r\n&nbsp;&nbsp;&nbsp; [MetadataType(typeof(AlbumMetaData))]<br>\r\n&nbsp;&nbsp;&nbsp; public partial class Album<br>\r\n&nbsp;&nbsp;&nbsp; {<br>\r\n&nbsp;&nbsp;&nbsp;&nbsp;&nbsp;&nbsp;&nbsp; // Validation rules for the Album class<br>\r\n&nbsp;&nbsp;&nbsp;&nbsp;&nbsp;&nbsp;&nbsp; [Bind(Exclude = &quot;AlbumId&quot;)]<br>\r\n&nbsp;&nbsp;&nbsp;&nbsp;&nbsp;&nbsp;&nbsp; public class AlbumMetaData<br>\r\n&nbsp;&nbsp;&nbsp;&nbsp;&nbsp;&nbsp;&nbsp; {<br>\r\n&nbsp;&nbsp;&nbsp;&nbsp;&nbsp;&nbsp;&nbsp;&nbsp;&nbsp;&nbsp;&nbsp; [ScaffoldColumn(false)]<br>\r\n&nbsp;&nbsp;&nbsp;&nbsp;&nbsp;&nbsp;&nbsp;&nbsp;&nbsp;&nbsp;&nbsp; public object AlbumId { get; set; }<br>\r\n&nbsp;&nbsp;&nbsp;&nbsp;&nbsp;&nbsp;&nbsp;&nbsp;&nbsp;&nbsp;&nbsp; [DisplayName(&quot;Genre&quot;)]<br>\r\n&nbsp;&nbsp;&nbsp;&nbsp;&nbsp;&nbsp;&nbsp;&nbsp;&nbsp;&nbsp;&nbsp; public object GenreId { get; set; }<br>\r\n&nbsp;&nbsp;&nbsp;&nbsp;&nbsp;&nbsp;&nbsp;&nbsp;&nbsp;&nbsp;&nbsp; [DisplayName(&quot;Artist&quot;)]<br>\r\n&nbsp;&nbsp;&nbsp;&nbsp;&nbsp;&nbsp;&nbsp;&nbsp;&nbsp;&nbsp;&nbsp; public object ArtistId { get; set; }<br>\r\n&nbsp;&nbsp;&nbsp;&nbsp;&nbsp;&nbsp;&nbsp;&nbsp;&nbsp;&nbsp;&nbsp; [Required(ErrorMessage = &quot;An Album Title is required&quot;)]<br>\r\n&nbsp;&nbsp;&nbsp;&nbsp;&nbsp;&nbsp;&nbsp;&nbsp;&nbsp;&nbsp;&nbsp; [StringLength(160)]<br>\r\n&nbsp;&nbsp;&nbsp;&nbsp;&nbsp;&nbsp;&nbsp;&nbsp;&nbsp;&nbsp;&nbsp; public object Title { get; set; }<br>\r\n&nbsp;&nbsp;&nbsp;&nbsp;&nbsp;&nbsp;&nbsp;&nbsp;&nbsp;&nbsp;&nbsp; [DisplayName(&quot;Album Art URL&quot;)]<br>\r\n&nbsp;&nbsp;&nbsp;&nbsp;&nbsp;&nbsp;&nbsp;&nbsp;&nbsp;&nbsp;&nbsp; [StringLength(1024)]<br>\r\n&nbsp;&nbsp;&nbsp;&nbsp;&nbsp;&nbsp;&nbsp;&nbsp;&nbsp;&nbsp;&nbsp; public object AlbumArtUrl { get; set; }<br>\r\n&nbsp;&nbsp;&nbsp;&nbsp;&nbsp;&nbsp;&nbsp;&nbsp;&nbsp;&nbsp;&nbsp; [Required(ErrorMessage = &quot;Price is required&quot;)]<br>\r\n&nbsp;&nbsp;&nbsp;&nbsp;&nbsp;&nbsp;&nbsp;&nbsp;&nbsp;&nbsp;&nbsp; [Range(0.01, 100.00, ErrorMessage = &quot;Price must be between 0.01 and 100.00&quot;)]<br>\r\n&nbsp;&nbsp;&nbsp;&nbsp;&nbsp;&nbsp;&nbsp;&nbsp;&nbsp;&nbsp;&nbsp; public object Price { get; set; }<br>\r\n&nbsp;&nbsp;&nbsp;&nbsp;&nbsp;&nbsp;&nbsp; }<br>\r\n&nbsp;&nbsp;&nbsp; }<br>\r\n}</p>\r\n<p>&nbsp;</p>\r\n<p>what does &quot;[Bind(Exclude = &quot;AlbumId, Price&quot;)]&quot; mean? I think it means to exclude the AlbumId property, if this is true, why we still define the ScaffoldColumn(false) attribute?</p>\r\n<p>&nbsp;</p>\r\n<p>Thanks for your help!</p>\r\n",
    "PostedDate": "2010-12-27T03:17:46.657-08:00",
    "UserRole": null,
    "MarkedAsAnswerDate": null
  },
  {
    "Id": "540916",
    "ThreadId": "239639",
    "Html": "\r\n<p>Great question!</p>\r\n<p>The ScaffoldColumn attribute is used to control whether values are shown on display templates and edit fields are shown on editor templates. Setting ScaffoldColumn(false) means that the user won't be be shown the value.</p>\r\n<p>However, a malicious user could still tamper with the form and post additional information that we weren't expected. The Bind attribute allows us to specifiy a list of Included and Excluded fields which are used during binding. Brad Wilson (one of the ASP.NET\r\n MVC developers)&nbsp;has a great explanation of this in his post on Input Validation vs. Model Validation in ASP.NET MVC - see the section on &quot;The Over-Posting Problem&quot; -\r\n<a href=\"http://bradwilson.typepad.com/blog/2010/01/input-validation-vs-model-validation-in-aspnet-mvc.html\">\r\nhttp://bradwilson.typepad.com/blog/2010/01/input-validation-vs-model-validation-in-aspnet-mvc.html</a></p>\r\n<p>ScaffoldColumn is concerned with what is displayed to the user, whereas Bind is concerned with accepting input from the user. Make sense?</p>\r\n<p>&nbsp;</p>\r\n",
    "PostedDate": "2010-12-27T12:21:53.343-08:00",
    "UserRole": null,
    "MarkedAsAnswerDate": null
  },
  {
    "Id": "541045",
    "ThreadId": "239639",
    "Html": "\r\n<p>Thank for your quickly response! I have a bit got it.</p>\r\n<p>[Bind(Exclude = &quot;AlbumId&quot;)] disable the bind in Server Side, and&nbsp;[ScaffoldColumn(false)] parsed by MVC Framewrok and avoid to put to Client side?<br>\r\nIf I deleted the field in view(aspx), it also can make this field hide in Client, so&nbsp;is it&nbsp;[ScaffoldColumn(false)] not very necessary?</p>\r\n<p>&nbsp;Just let me think for a while....</p>\r\n",
    "PostedDate": "2010-12-27T20:45:38.917-08:00",
    "UserRole": null,
    "MarkedAsAnswerDate": null
  }
]