[
  {
    "Id": "552422",
    "ThreadId": "242541",
    "Html": "\r\n<p>Hi <br>\r\nI am stuck on part 4 of the tutorial when running the page, I am getting a problem with the line var genres = storeDb.Genres.ToList(); and when the page runs and I browse to /store URL I get the error back in visual studio of &quot;Invalid value for key 'attachdbfilename'</p>\r\n<p>Any ideas on what I am doing wrong - I followed the tutorial word for word?</p>\r\n<p>This is from my webconfig? I have installed SQL Express on my local c: drive</p>\r\n<p>&nbsp;&nbsp; &lt;connectionStrings&gt;<br>\r\n&nbsp;&nbsp;&nbsp; &lt;add name=&quot;MusicStoreEntities&quot; connectionString=&quot;data source=.\\SQLEXPRESS;Integrated Security=SSPI; AttachDBFilename=|Data Directory|\\MvcMusicStore.mdf; User Instance=true&quot; providerName=&quot;System.Data.SqlClient&quot; /&gt;<br>\r\n&nbsp; &lt;/connectionStrings&gt;<br>\r\n&lt;/configuration&gt;</p>\r\n<p>I also attached the .mdf file from the&nbsp;download from codeplex into the APP_DATA folder in visual studio by right clicking and ADD&gt; New item etc as per the tutorial</p>\r\n<p>&nbsp;Any ideas on what I am doing wrong?&nbsp; I am a newbie to .NET and MVC</p>\r\n",
    "PostedDate": "2011-01-20T01:21:39.137-08:00",
    "UserRole": null,
    "MarkedAsAnswerDate": null
  },
  {
    "Id": "555961",
    "ThreadId": "242541",
    "Html": "\r\n<p>I found some information on that error with some things to check here: <a href=\"http://social.msdn.microsoft.com/Forums/en-US/adodotnetdataproviders/thread/1d67d33b-0728-4951-8f11-4036be883d55/\">\r\nhttp://social.msdn.microsoft.com/Forums/en-US/adodotnetdataproviders/thread/1d67d33b-0728-4951-8f11-4036be883d55/</a></p>\r\n<p>One recommendation in particular stood out to me:</p>\r\n<p><em>If you receive this error while using .\\SQLEXPRESS as host name, it may make sense to inspect the SQL Server Configuration to see whether the .\\SQLEXPRESS name is not mapped as an alias to another server name/address, as this will cause the same error\r\n message.</em></p>\r\n",
    "PostedDate": "2011-01-26T17:13:02.95-08:00",
    "UserRole": null,
    "MarkedAsAnswerDate": null
  }
]