[
  {
    "Id": "601176",
    "ThreadId": "254862",
    "Html": "\r\n<p>On page 47, when we first create our MusicStoreEntities class, only two properties are shown: Albums and Genres. However, when I scaffold the StoreManager, I quickly saw that all the Artist info was missing. I went back and added a third property Albums\r\n to my MusicStoreEntities class and recreated StoreManager and it works as expected.</p>\r\n<p>&nbsp;</p>\r\n<p>Thought this might help someone else.</p>\r\n",
    "PostedDate": "2011-04-21T11:46:37.157-07:00",
    "UserRole": null,
    "MarkedAsAnswerDate": null
  }
]