[
  {
    "Id": "687847",
    "ThreadId": "276814",
    "Html": "\r\n<p>Hi all.</p>\r\n<p>I am fresh in asp.net MVC and i am wondering how could i use my database on remote server for storing data in this tutorial.</p>\r\n<p>Can anyone tell me how it should be done in right way?</p>\r\n<p>&nbsp;</p>\r\n<p>I know how to connect and use data with asp.net but i can see that in asp.net MVC it should be done in difrent way.</p>\r\n<p>Thanks for reply.</p>\r\n<p>&nbsp;</p>\r\n<p>Best regards</p>\r\n<p>Tom</p>\r\n",
    "PostedDate": "2011-10-22T07:51:58.427-07:00",
    "UserRole": null,
    "MarkedAsAnswerDate": null
  }
]