[
  {
    "Id": "728512",
    "ThreadId": "286896",
    "Html": "<p>Hi,&nbsp;</p>\n<p>I have created a spice store by following the MvcMusicStore 2.0 tutorial.</p>\n<p>I have changed the path name \"/Content/Images/..\" to \"Content/Images\" in SQL Server Management Studio.</p>\n<p>After making that change the products image on the homepage can be displayed. But if one browses to the variety section;</p>\n<p><a href=\"http://58.27.26.114/1072008030072/Store/Browse?Variety=Spices\">http://58.27.26.114/1072008030072/Store/Browse?Variety=Spices</a></p>\n<p>Its returning an invalid image thumbnail.</p>\n<p>Are there any proper syntax that should be replaced in the Store View or Store Controller?</p>\n<p>Thank you for looking into this.</p>\n<p>This is the controller from StoreController.cs</p>\n<p>-------------------------------------------------------------------------------</p>\n<p>\n<div style=\"color: black; background-color: white;\">\n<pre>        <span style=\"color: blue;\">public</span> ActionResult Browse(<span style=\"color: blue;\">string</span> variety)\n        {\n            <span style=\"color: green;\">//Retrieve Variety and its Associated Products from database</span>\n            <span style=\"color: blue;\">var</span> varietyModel = storeDB.Varieties.Include(<span style=\"color: #a31515;\">\"Products\"</span>)\n                .Single(v =&gt; v.Name == variety);\n\n            <span style=\"color: blue;\">return</span> View(varietyModel);\n        }\n</pre>\n</div>\n</p>\n<p>This is the view from Browse.cshtml</p>\n<p>-------------------------------------------------------------------------------</p>\n<p>&nbsp;</p>\n<div style=\"color: black; background-color: white;\">\n<pre>&lt;div <span style=\"color: blue;\">class</span>=<span style=\"color: #a31515;\">\"variety\"</span>&gt; &lt;h3&gt;&lt;em&gt;@Model.Name&lt;/em&gt; Products&lt;/h3&gt;\n\n &lt;ul id=<span style=\"color: #a31515;\">\"product-list\"</span>&gt; \n\n@<span style=\"color: blue;\">foreach</span> (<span style=\"color: blue;\">var</span> product <span style=\"color: blue;\">in</span> Model.Products)  \n\n{    \n\n &lt;li&gt;    \n\n&lt;a href=<span style=\"color: #a31515;\">\"@Url.Action(\"</span>Details<span style=\"color: #a31515;\">\", new { id = product.ProductId })\"</span>&gt;      \n\n&lt;img alt=<span style=\"color: #a31515;\">\"@product.Title\"</span> src=<span style=\"color: #a31515;\">\"@product.ProductPicUrl\"</span> /&gt;      \n\n&lt;span&gt;@product.Title&lt;/span&gt; &lt;/a&gt;        \n\n&lt;/li&gt; \n\n}\n</pre>\n</div>\n<p>&nbsp;</p>\n<p>&nbsp;</p>",
    "PostedDate": "2012-01-20T17:17:04.823-08:00",
    "UserRole": null,
    "MarkedAsAnswerDate": null
  },
  {
    "Id": "728795",
    "ThreadId": "286896",
    "Html": "<p>Try this for view :&nbsp;</p>\n<p>&nbsp;</p>\n<pre><div style=\"color: black; background-color: white;\"><pre><span style=\"color: blue;\">&lt;</span><span style=\"color: #a31515;\">div</span> <span style=\"color: red;\">class</span><span style=\"color: blue;\">=</span><span style=\"color: blue;\">\"variety\"</span><span style=\"color: blue;\">&gt;</span> <span style=\"color: blue;\">&lt;</span><span style=\"color: #a31515;\">h3</span><span style=\"color: blue;\">&gt;</span><span style=\"color: blue;\">&lt;</span><span style=\"color: #a31515;\">em</span><span style=\"color: blue;\">&gt;</span>@Model.Name<span style=\"color: blue;\">&lt;/</span><span style=\"color: #a31515;\">em</span><span style=\"color: blue;\">&gt;</span> Products<span style=\"color: blue;\">&lt;/</span><span style=\"color: #a31515;\">h3</span><span style=\"color: blue;\">&gt;</span>\n\n <span style=\"color: blue;\">&lt;</span><span style=\"color: #a31515;\">ul</span> <span style=\"color: red;\">id</span><span style=\"color: blue;\">=</span><span style=\"color: blue;\">\"product-list\"</span><span style=\"color: blue;\">&gt;</span> \n\n@foreach (var product in Model.Products)  \n\n{    \n\n <span style=\"color: blue;\">&lt;</span><span style=\"color: #a31515;\">li</span><span style=\"color: blue;\">&gt;</span>    \n\n<span style=\"color: blue;\">&lt;</span><span style=\"color: #a31515;\">a</span> <span style=\"color: red;\">href</span><span style=\"color: blue;\">=</span><span style=\"color: blue;\">\"@Url.Action(\"Details\", new { id = product.ProductId })\"</span><span style=\"color: blue;\">&gt;</span>      \n\n<span style=\"color: blue;\">&lt;</span><span style=\"color: #a31515;\">img</span> <span style=\"color: red;\">alt</span><span style=\"color: blue;\">=</span><span style=\"color: blue;\">\"@product.Title\"</span> <span style=\"color: red;\">src</span><span style=\"color: blue;\">=</span><span style=\"color: blue;\">\"../@product.ProductPicUrl\"</span> <span style=\"color: blue;\">/&gt;</span>      \n\n<span style=\"color: blue;\">&lt;</span><span style=\"color: #a31515;\">span</span><span style=\"color: blue;\">&gt;</span>@product.Title<span style=\"color: blue;\">&lt;/</span><span style=\"color: #a31515;\">span</span><span style=\"color: blue;\">&gt;</span> <span style=\"color: blue;\">&lt;/</span><span style=\"color: #a31515;\">a</span><span style=\"color: blue;\">&gt;</span>        \n\n<span style=\"color: blue;\">&lt;/</span><span style=\"color: #a31515;\">li</span><span style=\"color: blue;\">&gt;</span> \n\n}\n</pre>\n</div>\n<br /></pre>",
    "PostedDate": "2012-01-21T15:49:33.16-08:00",
    "UserRole": null,
    "MarkedAsAnswerDate": null
  },
  {
    "Id": "728817",
    "ThreadId": "286896",
    "Html": "<p>Thank you, KamranSadin, it worked for the browse page!</p>\n<p>However, i am trying to implement the same method for the Details page;</p>\n<p>\n<div style=\"color: black; background-color: white;\">\n<pre>&lt;p&gt;   \n\n&lt;img alt=<span style=\"color: #a31515;\">\"@Model.Title\"</span> src=<span style=\"color: #a31515;\">\"../@Model.ProductPicUrl\"</span> /&gt;\n\n&lt;/p&gt;\n</pre>\n</div>\n</p>\n<p>But looks like it doesn't work. (Displays a invalid image thumbnail)</p>\n<p>Any workaround for this?</p>",
    "PostedDate": "2012-01-21T17:22:24.45-08:00",
    "UserRole": null,
    "MarkedAsAnswerDate": null
  },
  {
    "Id": "729701",
    "ThreadId": "286896",
    "Html": "<p>I added another directory up \"../../\" and it solved the display problem. Thanks!</p>",
    "PostedDate": "2012-01-23T20:42:09.46-08:00",
    "UserRole": null,
    "MarkedAsAnswerDate": null
  },
  {
    "Id": "729765",
    "ThreadId": "286896",
    "Html": "Glad you got it working. The best solution is to use the Url.Content helper (\r\n<a href=\"http://msdn.microsoft.com/en-us/library/system.web.mvc.urlhelper.content.aspx\">\r\nhttp://msdn.microsoft.com/en-us/library/system.web.mvc.urlhelper.content.aspx</a> ) as it will automatically generate the correct url's for you, and it handles moves between environments well.\r\n<div><br>\r\n</div>\r\n<div>\r\n<pre style=\"margin-top:0px; margin-bottom:10px; padding-top:5px; padding-right:5px; padding-bottom:5px; padding-left:5px; border-top-width:0px; border-right-width:0px; border-bottom-width:0px; border-left-width:0px; border-style:initial; border-color:initial; font-size:14px; vertical-align:baseline; background-color:rgb(255,255,255); font-family:Consolas,Menlo,Monaco,'Lucida Console','Liberation Mono','DejaVu Sans Mono','Bitstream Vera Sans Mono','Courier New',monospace,serif; overflow-x:auto; overflow-y:auto; width:auto; max-height:600px; line-height:18px; text-align:left\">\r\n<code style=\"margin-top:0px; margin-right:0px; margin-bottom:0px; margin-left:0px; padding-top:0px; padding-right:0px; padding-bottom:0px; padding-left:0px; border-top-width:0px; border-right-width:0px; border-bottom-width:0px; border-left-width:0px; border-style:initial; border-color:initial; font-size:14px; vertical-align:baseline; background-color:rgb(238,238,238); font-family:Consolas,Menlo,Monaco,'Lucida Console','Liberation Mono','DejaVu Sans Mono','Bitstream Vera Sans Mono','Courier New',monospace,serif\"><span style=\"margin-top:0px; margin-right:0px; margin-bottom:0px; margin-left:0px; padding-top:0px; padding-right:0px; padding-bottom:0px; padding-left:0px; border-top-width:0px; border-right-width:0px; border-bottom-width:0px; border-left-width:0px; border-style:initial; border-color:initial; font-size:14px; vertical-align:baseline; background-color:transparent; color:rgb(128,0,0)\">@Url</span><span style=\"margin-top:0px; margin-right:0px; margin-bottom:0px; margin-left:0px; padding-top:0px; padding-right:0px; padding-bottom:0px; padding-left:0px; border-top-width:0px; border-right-width:0px; border-bottom-width:0px; border-left-width:0px; border-style:initial; border-color:initial; font-size:14px; vertical-align:baseline; background-color:transparent\">.</span><span style=\"margin-top:0px; margin-right:0px; margin-bottom:0px; margin-left:0px; padding-top:0px; padding-right:0px; padding-bottom:0px; padding-left:0px; border-top-width:0px; border-right-width:0px; border-bottom-width:0px; border-left-width:0px; border-style:initial; border-color:initial; font-size:14px; vertical-align:baseline; background-color:transparent; color:rgb(43,145,175)\">Content</span><span style=\"margin-top:0px; margin-right:0px; margin-bottom:0px; margin-left:0px; padding-top:0px; padding-right:0px; padding-bottom:0px; padding-left:0px; border-top-width:0px; border-right-width:0px; border-bottom-width:0px; border-left-width:0px; border-style:initial; border-color:initial; font-size:14px; vertical-align:baseline; background-color:transparent\">(</span><span style=\"margin-top:0px; margin-right:0px; margin-bottom:0px; margin-left:0px; padding-top:0px; padding-right:0px; padding-bottom:0px; padding-left:0px; border-top-width:0px; border-right-width:0px; border-bottom-width:0px; border-left-width:0px; border-style:initial; border-color:initial; font-size:14px; vertical-align:baseline; background-color:transparent; color:rgb(128,0,0)\">&quot;~/&quot;</span><span style=\"margin-top:0px; margin-right:0px; margin-bottom:0px; margin-left:0px; padding-top:0px; padding-right:0px; padding-bottom:0px; padding-left:0px; border-top-width:0px; border-right-width:0px; border-bottom-width:0px; border-left-width:0px; border-style:initial; border-color:initial; font-size:14px; vertical-align:baseline; background-color:transparent\"> </span><span style=\"margin-top:0px; margin-right:0px; margin-bottom:0px; margin-left:0px; padding-top:0px; padding-right:0px; padding-bottom:0px; padding-left:0px; border-top-width:0px; border-right-width:0px; border-bottom-width:0px; border-left-width:0px; border-style:initial; border-color:initial; font-size:14px; vertical-align:baseline; background-color:transparent\">&#43;</span><span style=\"margin-top:0px; margin-right:0px; margin-bottom:0px; margin-left:0px; padding-top:0px; padding-right:0px; padding-bottom:0px; padding-left:0px; border-top-width:0px; border-right-width:0px; border-bottom-width:0px; border-left-width:0px; border-style:initial; border-color:initial; font-size:14px; vertical-align:baseline; background-color:transparent\"> <font color=\"#2b91af\">product</font></span><span style=\"margin-top:0px; margin-right:0px; margin-bottom:0px; margin-left:0px; padding-top:0px; padding-right:0px; padding-bottom:0px; padding-left:0px; border-top-width:0px; border-right-width:0px; border-bottom-width:0px; border-left-width:0px; border-style:initial; border-color:initial; font-size:14px; vertical-align:baseline; background-color:transparent\">.</span><span style=\"margin-top:0px; margin-right:0px; margin-bottom:0px; margin-left:0px; padding-top:0px; padding-right:0px; padding-bottom:0px; padding-left:0px; border-top-width:0px; border-right-width:0px; border-bottom-width:0px; border-left-width:0px; border-style:initial; border-color:initial; font-size:14px; vertical-align:baseline; background-color:transparent; color:rgb(43,145,175)\">productPicUrl</span><span style=\"margin-top:0px; margin-right:0px; margin-bottom:0px; margin-left:0px; padding-top:0px; padding-right:0px; padding-bottom:0px; padding-left:0px; border-top-width:0px; border-right-width:0px; border-bottom-width:0px; border-left-width:0px; border-style:initial; border-color:initial; font-size:14px; vertical-align:baseline; background-color:transparent\">))</span></code></pre>\r\n<br>\r\nOn Monday, January 23, 2012, kaneXtreme wrote:<br>\r\n<blockquote style=\"margin:0 0 0 .8ex; border-left:1px #ccc solid; padding-left:1ex\">\r\n<div>\r\n<p>From: kaneXtreme</p>\r\n<div>\r\n<p>I added another directory up &quot;../../&quot; and it solved the display problem. Thanks!</p>\r\n</div>\r\n<div>\r\n<p>Read the <a href=\"http://mvcmusicstore.codeplex.com/discussions/286896#post729701\" target=\"_blank\">\r\nfull discussion online</a>.</p>\r\n<p>To add a post to this discussion, reply to this email (<a href=\"\" target=\"_blank\">mvcmusicstore@discussions.codeplex.com</a>)</p>\r\n<p>To start a new discussion for this project, email <a href=\"\" target=\"_blank\">mvcmusicstore@discussions.codeplex.com</a></p>\r\n<p>You are receiving this email because you subscribed to this discussion on CodePlex. You can\r\n<a href=\"https://mvcmusicstore.codeplex.com/subscriptions/thread/project/edit\" target=\"_blank\">\r\nunsubscribe or change your settings</a> on codePlex.com.</p>\r\n<p>Please note: Images and attachments will be removed from emails. Any posts to this discussion will also be available online at\r\n<a href=\"http://codeplex.com\" target=\"_blank\">codeplex.com</a></p>\r\n</div>\r\n</div>\r\n</blockquote>\r\n</div>\r\n",
    "PostedDate": "2012-01-24T00:44:53.477-08:00",
    "UserRole": null,
    "MarkedAsAnswerDate": null
  }
]