[
  {
    "Id": "827680",
    "ThreadId": "353322",
    "Html": "\r\n<p>Hi everyone,</p>\r\n<p>&nbsp;</p>\r\n<p>I'm new at ASP.Net MVC3, so I googling for some tutorial and ultimately found this one (MVC Music Store).</p>\r\n<p>There's something I don't quite undestand. At part 4, when we add a store catalog (via Seed feature), how could it automatically insert data to database ?</p>\r\n<p>In the previous tutorial (Movie App tutorial), we do something like this</p>\r\n<p>&nbsp;</p>\r\n<div style=\"color:black; background-color:white\">\r\n<pre><span style=\"color:blue\">var</span> movies = <span style=\"color:blue\">new</span> List&lt;Movie&gt; {  \r\n  \r\n                 <span style=\"color:blue\">new</span> Movie { Title = <span style=\"color:#a31515\">&quot;When Harry Met Sally&quot;</span>,   \r\n                             ReleaseDate=DateTime.Parse(<span style=\"color:#a31515\">&quot;1989-1-11&quot;</span>),   \r\n                             Genre=<span style=\"color:#a31515\">&quot;Romantic Comedy&quot;</span>,  \r\n                             Rating=<span style=\"color:#a31515\">&quot;R&quot;</span>,  \r\n                             Price=7.99M},  \r\n\r\n                     <span style=\"color:blue\">new</span> Movie { Title = <span style=\"color:#a31515\">&quot;Ghostbusters &quot;</span>,   \r\n                             ReleaseDate=DateTime.Parse(<span style=\"color:#a31515\">&quot;1984-3-13&quot;</span>),   \r\n                             Genre=<span style=\"color:#a31515\">&quot;Comedy&quot;</span>,  \r\n                              Rating=<span style=\"color:#a31515\">&quot;R&quot;</span>,  \r\n                             Price=8.99M},   \r\n  \r\n                 <span style=\"color:blue\">new</span> Movie { Title = <span style=\"color:#a31515\">&quot;Ghostbusters 2&quot;</span>,   \r\n                             ReleaseDate=DateTime.Parse(<span style=\"color:#a31515\">&quot;1986-2-23&quot;</span>),   \r\n                             Genre=<span style=\"color:#a31515\">&quot;Comedy&quot;</span>,  \r\n                             Rating=<span style=\"color:#a31515\">&quot;R&quot;</span>,  \r\n                             Price=9.99M},   \r\n\r\n               <span style=\"color:blue\">new</span> Movie { Title = <span style=\"color:#a31515\">&quot;Rio Bravo&quot;</span>,   \r\n                             ReleaseDate=DateTime.Parse(<span style=\"color:#a31515\">&quot;1959-4-15&quot;</span>),   \r\n                             Genre=<span style=\"color:#a31515\">&quot;Western&quot;</span>,  \r\n                             Rating=<span style=\"color:#a31515\">&quot;R&quot;</span>,  \r\n                             Price=3.99M},   \r\n             };\r\n\r\n            movies.ForEach(d =&gt; context.Movies.Add(d));\r\n\r\n</pre>\r\n</div>\r\n<p>&nbsp;</p>\r\n<p>but on the music store tutorial, we only do this :</p>\r\n<p></p>\r\n<div style=\"color:black; background-color:white\">\r\n<pre><span style=\"color:blue\">var</span> genres = <span style=\"color:blue\">new</span> List&lt;Genre&gt;\r\n            {\r\n                <span style=\"color:blue\">new</span> Genre { Name = <span style=\"color:#a31515\">&quot;Rock&quot;</span> },\r\n                <span style=\"color:blue\">new</span> Genre { Name = <span style=\"color:#a31515\">&quot;Jazz&quot;</span> },\r\n                <span style=\"color:blue\">new</span> Genre { Name = <span style=\"color:#a31515\">&quot;Metal&quot;</span> },\r\n                <span style=\"color:blue\">new</span> Genre { Name = <span style=\"color:#a31515\">&quot;Alternative&quot;</span> },\r\n                <span style=\"color:blue\">new</span> Genre { Name = <span style=\"color:#a31515\">&quot;Disco&quot;</span> },\r\n                <span style=\"color:blue\">new</span> Genre { Name = <span style=\"color:#a31515\">&quot;Blues&quot;</span> },\r\n                <span style=\"color:blue\">new</span> Genre { Name = <span style=\"color:#a31515\">&quot;Latin&quot;</span> },\r\n                <span style=\"color:blue\">new</span> Genre { Name = <span style=\"color:#a31515\">&quot;Reggae&quot;</span> },\r\n                <span style=\"color:blue\">new</span> Genre { Name = <span style=\"color:#a31515\">&quot;Pop&quot;</span> },\r\n                <span style=\"color:blue\">new</span> Genre { Name = <span style=\"color:#a31515\">&quot;Classical&quot;</span> }\r\n            };<br>&nbsp;</pre>\r\n</div>\r\nwithout doing this :\r\n<p></p>\r\n<p></p>\r\n<div style=\"color:black; background-color:white\">\r\n<pre>genres.ForEach(g =&gt; context.Genres.Add(g));\r\n</pre>\r\n</div>\r\n<p></p>\r\n<p>So how could it automatically added to database, could somebody please explain to me the process?</p>\r\n<p>&nbsp;</p>\r\n<p>Thank you</p>\r\n<div id=\"_mcePaste\" style=\"left:-10000px; top:347px; width:1px; height:1px; overflow:hidden\">\r\nvar genres = new List&lt;Genre&gt;<br>\r\n&nbsp;&nbsp;&nbsp;&nbsp;&nbsp;&nbsp;&nbsp;&nbsp;&nbsp;&nbsp;&nbsp; {<br>\r\n&nbsp;&nbsp;&nbsp;&nbsp;&nbsp;&nbsp;&nbsp;&nbsp;&nbsp;&nbsp;&nbsp;&nbsp;&nbsp;&nbsp;&nbsp; new Genre { Name = &quot;Rock&quot; },<br>\r\n&nbsp;&nbsp;&nbsp;&nbsp;&nbsp;&nbsp;&nbsp;&nbsp;&nbsp;&nbsp;&nbsp;&nbsp;&nbsp;&nbsp;&nbsp; new Genre { Name = &quot;Jazz&quot; },<br>\r\n&nbsp;&nbsp;&nbsp;&nbsp;&nbsp;&nbsp;&nbsp;&nbsp;&nbsp;&nbsp;&nbsp;&nbsp;&nbsp;&nbsp;&nbsp; new Genre { Name = &quot;Metal&quot; },<br>\r\n&nbsp;&nbsp;&nbsp;&nbsp;&nbsp;&nbsp;&nbsp;&nbsp;&nbsp;&nbsp;&nbsp;&nbsp;&nbsp;&nbsp;&nbsp; new Genre { Name = &quot;Alternative&quot; },<br>\r\n&nbsp;&nbsp;&nbsp;&nbsp;&nbsp;&nbsp;&nbsp;&nbsp;&nbsp;&nbsp;&nbsp;&nbsp;&nbsp;&nbsp;&nbsp; new Genre { Name = &quot;Disco&quot; },<br>\r\n&nbsp;&nbsp;&nbsp;&nbsp;&nbsp;&nbsp;&nbsp;&nbsp;&nbsp;&nbsp;&nbsp;&nbsp;&nbsp;&nbsp;&nbsp; new Genre { Name = &quot;Blues&quot; },<br>\r\n&nbsp;&nbsp;&nbsp;&nbsp;&nbsp;&nbsp;&nbsp;&nbsp;&nbsp;&nbsp;&nbsp;&nbsp;&nbsp;&nbsp;&nbsp; new Genre { Name = &quot;Latin&quot; },<br>\r\n&nbsp;&nbsp;&nbsp;&nbsp;&nbsp;&nbsp;&nbsp;&nbsp;&nbsp;&nbsp;&nbsp;&nbsp;&nbsp;&nbsp;&nbsp; new Genre { Name = &quot;Reggae&quot; },<br>\r\n&nbsp;&nbsp;&nbsp;&nbsp;&nbsp;&nbsp;&nbsp;&nbsp;&nbsp;&nbsp;&nbsp;&nbsp;&nbsp;&nbsp;&nbsp; new Genre { Name = &quot;Pop&quot; },<br>\r\n&nbsp;&nbsp;&nbsp;&nbsp;&nbsp;&nbsp;&nbsp;&nbsp;&nbsp;&nbsp;&nbsp;&nbsp;&nbsp;&nbsp;&nbsp; new Genre { Name = &quot;Classical&quot; }<br>\r\n&nbsp;&nbsp;&nbsp;&nbsp;&nbsp;&nbsp;&nbsp;&nbsp;&nbsp;&nbsp;&nbsp; };</div>\r\n",
    "PostedDate": "2012-04-23T23:13:32.423-07:00",
    "UserRole": null,
    "MarkedAsAnswerDate": null
  }
]