[
  {
    "Id": "834359",
    "ThreadId": "355198",
    "Html": "\r\n<p>Hi,</p>\r\n<p>I have downloaded MvcMusicStore-v3.0 application, i could not find .edmx file? how is it accessing the data?</p>\r\n<p>2) what is MvcMusicStore.sdf file in App_Data??</p>\r\n<p>3)is it using POCO classes?</p>\r\n<p>please someone help me on this....</p>\r\n<p>Thanks.</p>\r\n",
    "PostedDate": "2012-05-09T19:53:52.643-07:00",
    "UserRole": null,
    "MarkedAsAnswerDate": null
  }
]