[
  {
    "Id": "954607",
    "ThreadId": "406408",
    "Html": "\r\n<p>On page 99 of the pdf tutorial, it calls for creating a Shopping Cart Index page that is strongly typed to the ShoppingCartViewModel and uses the List View template.</p>\r\n<p>The problem is that the tutorial goes into the explanation of adding the view, but never says where to add the view. &nbsp;It may seem trivial for some, but for a beginner, it should be clearly spelled out. &nbsp;So, question 1 is - exactly, where do I create\r\n the Shopping Cart Index page?</p>\r\n<p>I assumed (probably incorrectly) that it goes in either the root of the Views folder, so I then got to the screen shown at the top of page 100 in the pdf tutorial, which is the Add View box.</p>\r\n<p>I check the box for &quot;Create a strongly-typed view&quot;, but in the &quot;Model class&quot; dropdown menu, I do not have ShoppingCartViewModel. &nbsp;ShoppingCartViewModel does exist, however, in the ViewModels folder that I created a few pages earlier.</p>\r\n<p>Any suggestions for what I may have done incorrectly that prevents the ShoppingCartViewModel from appearing in the dropdown?</p>\r\n<p>Thanks! - Nick</p>\r\n",
    "PostedDate": "2012-12-11T07:28:00.75-08:00",
    "UserRole": null,
    "MarkedAsAnswerDate": null
  },
  {
    "Id": "957115",
    "ThreadId": "406408",
    "Html": "\r\n<p>If it would help diagnose the problem, I can set up a Join.Me to share my screen...</p>\r\n<p>Any thoughts that I could research on my own?</p>\r\n<p>Thanks! - Nick</p>\r\n",
    "PostedDate": "2012-12-17T10:15:14.903-08:00",
    "UserRole": null,
    "MarkedAsAnswerDate": null
  },
  {
    "Id": "958523",
    "ThreadId": "406408",
    "Html": "\r\n<p>Had the same problem....</p>\r\n<p>Create a ShoppingCart folder in views and put the index.cshtml in there.</p>\r\n<p>seems to work.</p>\r\n",
    "PostedDate": "2012-12-19T08:35:53.497-08:00",
    "UserRole": null,
    "MarkedAsAnswerDate": null
  },
  {
    "Id": "958598",
    "ThreadId": "406408",
    "Html": "\r\n<p>That worked! &nbsp;Thank you!</p>\r\n",
    "PostedDate": "2012-12-19T10:27:32.467-08:00",
    "UserRole": null,
    "MarkedAsAnswerDate": null
  },
  {
    "Id": "967887",
    "ThreadId": "406408",
    "Html": "\r\n<p>You just need to build or rebuild your application, then it will appear.</p>\r\n",
    "PostedDate": "2012-12-24T07:23:57.007-08:00",
    "UserRole": null,
    "MarkedAsAnswerDate": null
  },
  {
    "Id": "1048247",
    "ThreadId": "406408",
    "Html": "My problem also relates  to this area. Under the directions on page 99-100 of  pdf, when I try to create a ShoppingCartIndex  by Right clicking in the Shopping Cart Controller under Index method and  strongly typing to ShopppingCartViewModel, I fail because  ShopppingCartViewModel  is not there in the visible  list of Model  classes. Though,  I had already created a folder “ModelView”  under ( Model Folder ) cantaining (1)  ShopingCartViewModel and (2) ShoppingCartRemoveViewModel. \r<br />\n<br />\nPlease help!\r<br />\n<br />\nThanking you in anticipation.\r<br />\n<br />\n786basharat<br />\n",
    "PostedDate": "2013-05-24T07:11:21.51-07:00",
    "UserRole": null,
    "MarkedAsAnswerDate": null
  }
]