[
  {
    "Id": "967742",
    "ThreadId": "415297",
    "Html": "\r\n<p>Let me show my situation and thanks for your help.</p>\r\n<p>I have install SQL Server 2008 express on my computer. But I have recognized that this tutorial is using SQL Server Compact Edition.&nbsp;</p>\r\n<p>So I used the following configuration in web.config file</p>\r\n<div style=\"color:black; background-color:white\">\r\n<pre><span style=\"color:blue\">&lt;</span><span style=\"color:#a31515\">connectionStrings</span><span style=\"color:blue\">&gt;</span>\n    <span style=\"color:blue\">&lt;</span><span style=\"color:#a31515\">add</span> <span style=\"color:red\">name</span><span style=\"color:blue\">=</span><span style=\"color:black\">&quot;</span><span style=\"color:blue\">MusicStoreEntities</span><span style=\"color:black\">&quot;</span> <span style=\"color:red\">connectionString</span><span style=\"color:blue\">=</span><span style=\"color:black\">&quot;</span><span style=\"color:blue\">|DataDirectory|MvcMusicStore.mdf</span><span style=\"color:black\">&quot;</span> <span style=\"color:red\">providerName</span><span style=\"color:blue\">=</span><span style=\"color:black\">&quot;</span><span style=\"color:blue\">System.Data.SqlClient</span><span style=\"color:black\">&quot;</span> <span style=\"color:blue\">/&gt;</span>\n  <span style=\"color:blue\">&lt;/</span><span style=\"color:#a31515\">connectionStrings</span><span style=\"color:blue\">&gt;</span>\n</pre>\r\n</div>\r\n<p>instead of&nbsp;</p>\r\n<div style=\"color:black; background-color:white\">\r\n<pre><span style=\"color:blue\">&lt;</span><span style=\"color:#a31515\">connectionStrings</span><span style=\"color:blue\">&gt;</span>\n<span style=\"color:blue\">&lt;</span><span style=\"color:#a31515\">add</span> <span style=\"color:red\">name</span><span style=\"color:blue\">=</span><span style=\"color:black\">&quot;</span><span style=\"color:blue\">MusicStoreEntities</span><span style=\"color:black\">&quot;</span>\n<span style=\"color:red\">connectionString</span><span style=\"color:blue\">=</span><span style=\"color:black\">&quot;</span><span style=\"color:blue\">Data Source=|DataDirectory|MvcMusicStore.sdf</span><span style=\"color:black\">&quot;</span>\n<span style=\"color:red\">providerName</span><span style=\"color:blue\">=</span><span style=\"color:black\">&quot;</span><span style=\"color:blue\">System.Data.SqlServerCe.4.0</span><span style=\"color:black\">&quot;</span><span style=\"color:blue\">/&gt;</span>\n<span style=\"color:blue\">&lt;/</span><span style=\"color:#a31515\">connectionStrings</span><span style=\"color:blue\">&gt;</span>\n</pre>\r\n</div>\r\n<p>Unfortunatly, I got the exception at runtime below(<span style=\"color:#ff00ff\">Other code snippets is the same as the tutorial</span>)</p>\r\n<div style=\"color:black; background-color:white\">\r\n<pre><span style=\"color:blue\">public</span> ActionResult Index()\n{\n    <span style=\"color:blue\">var</span> genres = storeDB.Genres.ToList(); <span style=\"color:green\">//This line occurs</span>\n    <span style=\"color:blue\">return</span> View(genres);\n}</pre>\r\n</div>\r\n<p><strong>ArgumentException was unhandled by user code.&nbsp;</strong></p>\r\n<p>Format of the initialization string does not conform to specification starting at index 0.</p>\r\n<p>So how could I configure the web.config file to make it work? Thank you for all!</p>\r\n<p><span style=\"color:#0000ff\">Do I need to add a MvcMusciStore.mdf file before these operations?</span></p>\r\n",
    "PostedDate": "2012-12-23T20:59:02.54-08:00",
    "UserRole": null,
    "MarkedAsAnswerDate": null
  },
  {
    "Id": "967748",
    "ThreadId": "415297",
    "Html": "\r\n<p>I may fix it on two ways in this <strong><a href=\"http://forums.asp.net/t/1868133.aspx/\">link</a></strong>.</p>\r\n<p>But I still haven't got ideas about how it work out?</p>\r\n<p>Can someone explain it in detail?</p>\r\n<p>Thank you!</p>\r\n",
    "PostedDate": "2012-12-23T21:35:48.907-08:00",
    "UserRole": null,
    "MarkedAsAnswerDate": null
  },
  {
    "Id": "967756",
    "ThreadId": "415297",
    "Html": "\r\n<div>Is installing SQL CE an option? I had to do that to work with tutorial.</div>\r\n<div><br>\r\n</div>\r\n<div>The built in account database in the MVD 2010 template (at least in MVC4 / MWD 2010) is SQL Express. I had two connection strings - one for Express and one for CE.</div>\r\n<div><br>\r\n</div>\r\n<div><br>\r\n</div>\r\n<div><br>\r\n</div>\r\n<div><br>\r\nOn Dec 23, 2012, at 11:59 PM, &quot;sagegz&quot; &lt;<a href=\"mailto:notifications@codeplex.com\">notifications@codeplex.com</a>&gt; wrote:<br>\r\n<br>\r\n</div>\r\n<blockquote type=\"cite\">\r\n<div>\r\n<p>From: sagegz</p>\r\n<div id=\"ThreadNotificationPostBody\">\r\n<p>Let me show your situation and thanks for your help.</p>\r\n<p>I have install SQL Server 2008 express on my computer. But I have recognized that this tutorial is using SQL Server Compact Edition.\r\n</p>\r\n<p>So I used the following configuration in web.config file</p>\r\n<div style=\"color:black; background-color:white\">\r\n<pre><span style=\"color:blue\">&lt;</span><span style=\"color:#a31515\">connectionStrings</span><span style=\"color:blue\">&gt;</span>\r\n    <span style=\"color:blue\">&lt;</span><span style=\"color:#a31515\">add</span> <span style=\"color:red\">name</span><span style=\"color:blue\">=</span><span style=\"color:black\">&quot;</span><span style=\"color:blue\">MusicStoreEntities</span><span style=\"color:black\">&quot;</span> <span style=\"color:red\">connectionString</span><span style=\"color:blue\">=</span><span style=\"color:black\">&quot;</span><span style=\"color:blue\">|DataDirectory|MvcMusicStore.sdf</span><span style=\"color:black\">&quot;</span> <span style=\"color:red\">providerName</span><span style=\"color:blue\">=</span><span style=\"color:black\">&quot;</span><span style=\"color:blue\">System.Data.SqlClient</span><span style=\"color:black\">&quot;</span> <span style=\"color:blue\">/&gt;</span>\r\n  <span style=\"color:blue\">&lt;/</span><span style=\"color:#a31515\">connectionStrings</span><span style=\"color:blue\">&gt;</span>\r\n</pre>\r\n</div>\r\n<p>instead of </p>\r\n<div style=\"color:black; background-color:white\">\r\n<pre><span style=\"color:blue\">&lt;</span><span style=\"color:#a31515\">connectionStrings</span><span style=\"color:blue\">&gt;</span>\r\n<span style=\"color:blue\">&lt;</span><span style=\"color:#a31515\">add</span> <span style=\"color:red\">name</span><span style=\"color:blue\">=</span><span style=\"color:black\">&quot;</span><span style=\"color:blue\">MusicStoreEntities</span><span style=\"color:black\">&quot;</span>\r\n<span style=\"color:red\">connectionString</span><span style=\"color:blue\">=</span><span style=\"color:black\">&quot;</span><span style=\"color:blue\">Data Source=|DataDirectory|MvcMusicStore.sdf</span><span style=\"color:black\">&quot;</span>\r\n<span style=\"color:red\">providerName</span><span style=\"color:blue\">=</span><span style=\"color:black\">&quot;</span><span style=\"color:blue\">System.Data.SqlServerCe.4.0</span><span style=\"color:black\">&quot;</span><span style=\"color:blue\">/&gt;</span>\r\n<span style=\"color:blue\">&lt;/</span><span style=\"color:#a31515\">connectionStrings</span><span style=\"color:blue\">&gt;</span>\r\n</pre>\r\n</div>\r\n<p>Unfortunatly, I got the exception at runtime below(<span style=\"color:#ff00ff\">Other code snippets is the same as the tutorial</span>)</p>\r\n<p></p>\r\n<div style=\"color:black; background-color:white\">\r\n<pre><span style=\"color:blue\">public</span> ActionResult Index()\r\n{\r\n    <span style=\"color:blue\">var</span> genres = storeDB.Genres.ToList(); <span style=\"color:green\">//This line occurs</span>\r\n    <span style=\"color:blue\">return</span> View(genres);\r\n}\r\n</pre>\r\n</div>\r\n<p></p>\r\n<p><strong>ArgumentException was unhandled by user code. </strong></p>\r\n<p>Format of the initialization string does not conform to specification starting at index 0.</p>\r\n<p>So how could I configure the web.config file to make it work? Thank you for all!</p>\r\n</div>\r\n</div>\r\n</blockquote>\r\n",
    "PostedDate": "2012-12-23T22:07:49.387-08:00",
    "UserRole": null,
    "MarkedAsAnswerDate": null
  },
  {
    "Id": "967761",
    "ThreadId": "415297",
    "Html": "\r\n<blockquote style=\"border:solid .1em #ccc; font-style:italic; margin:.25em 1em 0 1em; padding:0 .25em 0 .25em\">\r\n<strong>3v3rhart wrote:</strong><br>\r\n<div>Is installing SQL CE an option? I had to do that to work with tutorial.</div>\r\n<div>The built in account database in the MVD 2010 template (at least in MVC4 / MWD 2010) is SQL Express. I had two connection strings - one for Express and one for CE.</div>\r\n</blockquote>\r\n<p>Hi,</p>\r\n<p>Thanks for your response.</p>\r\n<p>I don't quite understand your specify issues. After all I'm reading the Chapter 4. But you can try to install SQL Server Compact 4.0 to follow this tutorial.</p>\r\n",
    "PostedDate": "2012-12-23T22:18:23.957-08:00",
    "UserRole": null,
    "MarkedAsAnswerDate": null
  },
  {
    "Id": "989330",
    "ThreadId": "415297",
    "Html": "\r\n<p>Yes the smartest thing to do is download SQL server Compact 4.0.&nbsp; Then put the ddl ' files&nbsp; for SQL server compact 4.0 in the bin directory of your project. (MVCMusicStore)</p>\r\n<p>Then put the database MVCMusicStore.sdf which you can download from this page in your App_Data folder for you project.</p>\r\n<p>Maybe you have to reboot your machine to connect to MVCMusicStore.sdf</p>\r\n<p>This worked for me</p>\r\n",
    "PostedDate": "2013-01-20T06:28:24.51-08:00",
    "UserRole": null,
    "MarkedAsAnswerDate": null
  }
]