[
  {
    "Id": "993240",
    "ThreadId": "431155",
    "Html": "\r\n<p>Solved it by an solution deliverd here in the forum: search for Storemanager and you find the solution.</p>\r\n<p>&nbsp;</p>\r\n<p>That's weird????</p>\r\n<p>&nbsp;</p>\r\n<p>We I&nbsp;press&nbsp;<strong>add</strong> to add the StoreManagerController I get this\r\n<strong>Error</strong>:</p>\r\n<p>&nbsp;</p>\r\n<p><span style=\"color:#ff0000\">&quot;Unable to retrieve metadata fore 'MvcMusicStore.Models.Album'. Using the same DbCompiledModel to create contexts against different types of database servers is not supported. Instead, create a seperate DbCompiledModel for each\r\n type of server being used.&quot;</span></p>\r\n<p><span style=\"color:#000000\">What the hell is this??? ;(</span></p>\r\n<p><strong><span style=\"color:#000000\">HELP <span style=\"color:#ff0000\">HELP</span> HELP</span></strong></p>\r\n<p><span style=\"color:#000000\">&nbsp;</span></p>\r\n",
    "PostedDate": "2013-01-28T12:15:05.3-08:00",
    "UserRole": null,
    "MarkedAsAnswerDate": null
  },
  {
    "Id": "995944",
    "ThreadId": "431155",
    "Html": "Hello mducrocq68\r<br />\n<br />\nMake the following change in config.web\r<br />\n<br />\nold:\r<br />\n&lt;add name=&quot;MusicStoreEntities&quot; connectionString=&quot;Data Source=|DataDirectory|MvcMusicStore.sdf&quot; providerName=&quot;System.Data.SqlServerCe.4.0&quot;/&gt;\r<br />\n<br />\nnew:\r<br />\n&lt;add name=&quot;MusicStoreEntities&quot; connectionString=&quot;Data Source=DBInstanceName;Initial Catalog=MvcMusicStore;Integrated Security=True&quot; providerName=&quot;System.Data.SqlClient&quot; /&gt;\r<br />\n<br />\nRegards\r<br />\n<br />\nrisi40<br />\n",
    "PostedDate": "2013-02-03T23:16:36.677-08:00",
    "UserRole": null,
    "MarkedAsAnswerDate": null
  },
  {
    "Id": "996160",
    "ThreadId": "431155",
    "Html": "Hello Risi40,\r<br />\n<br />\nNoop does not work, I already solved it as I mentioned in the header of my question. ;)\r<br />\n<br />\n&quot;Solved it by an solution deliverd here in the forum: search for Storemanager and you find the solution.&quot;\r<br />\n<br />\nRegards,\r<br />\n<br />\nmducrocq68<br />\n",
    "PostedDate": "2013-02-04T07:32:49.16-08:00",
    "UserRole": null,
    "MarkedAsAnswerDate": null
  }
]