[
  {
    "Id": "1110691",
    "ThreadId": "463189",
    "Html": "In the MVC music store project the Genre class and the Order class are partial classes in the tutorial. Is there a reason why they are partial or is this an over site?<br />\n",
    "PostedDate": "2013-10-22T10:20:16.407-07:00",
    "UserRole": null,
    "MarkedAsAnswerDate": null
  }
]