[
  {
    "Id": "1110914",
    "ThreadId": "463232",
    "Html": "After completing Part-6 which is Model Validation. I can create albums but when updating an existing one I encounter an error on the <code>SaveChanges()</code> line as following:<br />\n<pre><code>Store update, insert, or delete statement affected an unexpected number of rows (0). Entities may have been modified or deleted since entities were loaded. Refresh ObjectStateManager entries.</code></pre>\n\nWould really appreciate some suggestions on this.<br />\n",
    "PostedDate": "2013-10-23T01:00:32.747-07:00",
    "UserRole": null,
    "MarkedAsAnswerDate": null
  },
  {
    "Id": "1110948",
    "ThreadId": "463232",
    "Html": "Further testing results in the conclusion that I encounter this error only when I am annotating the Album class with <code>[Bind(Exclude = &quot;AlbumId&quot;)]</code>. But this has been suggested in the tutorial. I should not be encountering this problem???<br />\n",
    "PostedDate": "2013-10-23T02:19:25.9-07:00",
    "UserRole": null,
    "MarkedAsAnswerDate": null
  },
  {
    "Id": "1118181",
    "ThreadId": "463232",
    "Html": "As I have pointed out in the 'Issues' log.\r<br />\n<br />\nI received this error when attempting to 'save' in the 'MvcStoreManagerConroller' view 'Edit'.\r<br />\nThe 'MvcStoreManagerController' 'HTTPPOST' 'Edit' action method is invoked.\r<br />\nI set up a breakpoint and examined the 'album' object container contents.\r<br />\nThe album ID was = 0.\r<br />\nSo the error is saying an attempt was made to update a row that did not exist.\r<br />\n<br />\nThe problem:\r<br />\n<br />\nWhy is the album ID not being pulled and stored in memory, held in the hidden control for the ID\r<br />\nthen passed back to the controller via the album object class?\r<br />\n<br />\n<br />\nMVC has got this going on with hidden code so it seems that the answer is to fish\r<br />\naround for the proper setting to make sure the album ID does not get lost.\r<br />\n<br />\nI am not a fan of generated or hidden code.\r<br />\nThat is the difference here between ASP.NET with C#.NET and separate class libraries \r<br />\nwhere I do my own SQL and pull my own values from controls and pass them around.\r<br />\n<br />\nNo answer yet.<br />\n",
    "PostedDate": "2013-11-05T13:19:01.833-08:00",
    "UserRole": null,
    "MarkedAsAnswerDate": null
  },
  {
    "Id": "1118769",
    "ThreadId": "463232",
    "Html": "@bofcarbon1 Exactly! Only when I annotate the Album class with <code>[Bind (Exclude = &quot;AlbumId&quot;)]</code> I also found out that <code>id=0</code> was always being passed.<br />\n",
    "PostedDate": "2013-11-06T01:17:52.597-08:00",
    "UserRole": null,
    "MarkedAsAnswerDate": null
  }
]