[
  {
    "Id": "1207680",
    "ThreadId": "531639",
    "Html": "hey,\r<br />\nI am creating MVC music store  using MVC 4\r<br />\n<br />\nI am getting an error while building app...<br />\n<pre><code>__'muzzicStore.Models.SampleData.seed(muzzicStore.Models.MusicStoreEntities)': no suitable method found to override D:\\SHIVANI\\MVC\\muzzicStore\\muzzicStore\\Views\\Models\\SampleData.cs       muzzicStore____\n</code></pre>\n\nmy code is  as follows:\r<br />\n<br />\nprotected override void seed(MusicStoreEntities context)<br />\n<pre><code>    {\n        var genres = new List&lt;Genre&gt;\n        {\n            new Genre{Name=&quot;Rock&quot;},\n            new Genre { Name = &quot;Jazz&quot; },\n            new Genre { Name = &quot;Metal&quot; },\n\n        };\n\n        var artists = new List&lt;Artist&gt;\n        {\n            new Artist { Name = &quot;Aaron Copland &amp; London Symphony Orchestra&quot; },\n            new Artist { Name = &quot;Aaron Goldberg&quot; },</code></pre>\n\n};<br />\n<pre><code>        new List&lt;Album&gt;\n        {\n            new Album{Title=&quot;The best men at work&quot;,Genre=genres.Single(g=&gt;g.Name==&quot;Rock&quot;),Price=8.98M,Artist=artists.Single(a=&gt;a.Name==&quot;Men At Work&quot;),AlbumArtUrl=&quot;/Content/Images/placeholder.gif&quot;},\n             new Album { Title = &quot;A Copland Celebration, Vol. I&quot;, Genre = genres.Single(g =&gt; g.Name == &quot;Classical&quot;), Price = 8.99M, Artist = artists.Single(a =&gt; a.Name == &quot;Aaron Copland &amp; London Symphony Orchestra&quot;), AlbumArtUrl = &quot;/Content/Images/placeholder.gif&quot; },\n }.ForEach(a =&gt; context.Albums.Add(a));\n\n    }\n\n}</code></pre>\n\n}\r<br />\n<br />\nreply will be highly appreciable.\r<br />\nthanx and regards,\r<br />\nshivani<br />\n",
    "PostedDate": "2014-02-12T21:35:39.283-08:00",
    "UserRole": null,
    "MarkedAsAnswerDate": null
  }
]