[
  {
    "Id": "1223315",
    "ThreadId": "539186",
    "Html": "I have finished the tutorial till part 7 (admin rights for user) and i started to have few questions. \r<br />\n<br />\nSo far i dont have database i use datacontext yes? I wanted to change or add new categories by changing sample data but that didnt change anything. Do i still need sample data ? I changed the whole file and it didn change anything.\r<br />\n<br />\nAnd how do i change existing data in the project ? Is there somewhere file that i can't see?\r<br />\n<br />\nThirdly is there a way to create database from clases? I have changed some names and i am wondering if there is some easy way to export database :)\r<br />\n<br />\ncheers<br />\n",
    "PostedDate": "2014-03-16T14:24:31.46-07:00",
    "UserRole": null,
    "MarkedAsAnswerDate": null
  },
  {
    "Id": "1223338",
    "ThreadId": "539186",
    "Html": "nevermind .... the database was there all along but it was hidden  - i had to add it manually to solution to see it and be able to work with it :P<br />\n",
    "PostedDate": "2014-03-16T15:14:04.813-07:00",
    "UserRole": null,
    "MarkedAsAnswerDate": null
  },
  {
    "Id": "1223382",
    "ThreadId": "539186",
    "Html": "Glad you found it. The database connection string is shown in the web.config / connectionString section.<br />\n",
    "PostedDate": "2014-03-16T20:46:47.387-07:00",
    "UserRole": null,
    "MarkedAsAnswerDate": null
  }
]