[
  {
    "Id": "1288173",
    "ThreadId": "560623",
    "Html": "I am getting an error on chapter 4.  I know that others have had trouble with the same section.  The error message is<br />\n<blockquote>\n_<br />\nAn exception of type 'System.Data.Entity.ModelConfiguration.ModelValidationException' occurred in EntityFramework.dll but was not handled in user code<br />\n</blockquote>\nAdditional information: One or more validation errors were detected during model generation:\r<br />\n<br />\n<br />\n\\tSystem.Data.Entity.Edm.EdmEntityType: : EntityType 'Genre' has no key defined. Define the key for this EntityType.<br />\n<blockquote>\n\\tSystem.Data.Entity.Edm.EdmEntitySet: EntityType: EntitySet 'Genres' is based on type 'Genre' that has no keys defined.<br />\n</blockquote>\nThis is the method:<br />\n<pre><code>public ActionResult Index()\n    {\n        var genres = storeDB.Genres.ToList();\n        return View(genres);\n    }\n</code></pre>\n\nI am running Visual Studio Express 2013 and I have downloaded SQL Compact Edition 4.  Maybe I haven't installed it correctly?  Maybe....?<br />\n\r<br />\nI am beyond frustrated and I have seen that others have had this problem but I can't figure out what they did to resolve this issue.  PLEASE HELP ME!!!!!\r<br />\n<br />\nThank you kindly<br />\n",
    "PostedDate": "2014-08-08T12:11:51.827-07:00",
    "UserRole": null,
    "MarkedAsAnswerDate": null
  }
]