[
  {
    "Id": 6598,
    "Title": "Typo in Document"
  },
  {
    "Id": 6599,
    "Title": "Error on Account Integration"
  },
  {
    "Id": 6600,
    "Title": "Logon Failed for user 'mycomputer\\myusername'."
  },
  {
    "Id": 6601,
    "Title": "Error  CS1928: 'System.Web.Mvc.HtmlHelper at EditorFor"
  },
  {
    "Id": 6602,
    "Title": "Help with Edit Form in Album Template"
  },
  {
    "Id": 6603,
    "Title": "problem of Album template"
  },
  {
    "Id": 6604,
    "Title": "Album Class"
  },
  {
    "Id": 6605,
    "Title": "Typo in homepage"
  },
  {
    "Id": 6606,
    "Title": "Edit view is empty"
  },
  {
    "Id": 6607,
    "Title": "Delete is not working"
  },
  {
    "Id": 6608,
    "Title": "Problem on how to Browse the List of Genre (Mvc Music Store Tutorial)"
  },
  {
    "Id": 6609,
    "Title": "Typo in Document - v0.8"
  },
  {
    "Id": 6610,
    "Title": "Mistake in the PDF document"
  },
  {
    "Id": 6611,
    "Title": "Mistake in PDF document v1.0 p.20"
  },
  {
    "Id": 6612,
    "Title": "Album ID's start at 386, need to be reset to start at 1"
  },
  {
    "Id": 6613,
    "Title": "There is a bug in the RemoveFromCart method"
  },
  {
    "Id": 6614,
    "Title": "'MvcMusicStore.Models.ShoppingCart' does not contain a definition for 'GetCartId' "
  },
  {
    "Id": 6615,
    "Title": "MVC Music Store for VB.NET?"
  },
  {
    "Id": 6616,
    "Title": "The ... field is required validation message cannot localized"
  },
  {
    "Id": 6617,
    "Title": "Cannot register new user"
  },
  {
    "Id": 6618,
    "Title": "Multiple applications cannot run in same site (urls broken)"
  },
  {
    "Id": 6619,
    "Title": "deploy to IIS 7 solution"
  },
  {
    "Id": 6620,
    "Title": "StoreManager/Edit/5 url problem..."
  },
  {
    "Id": 6621,
    "Title": "There is a mistake in Page 60 of the tutorial"
  },
  {
    "Id": 6622,
    "Title": "Localized validation message is displayed"
  },
  {
    "Id": 6623,
    "Title": "Does not work with decimal comma as decimal separator"
  },
  {
    "Id": 6624,
    "Title": "Duplicate Text in Page 18"
  },
  {
    "Id": 6625,
    "Title": "ASP.NET Configuration Site redirects to error message"
  },
  {
    "Id": 6626,
    "Title": "MVCMusicStore v2.0 doesn't show up contents part in Firefox"
  },
  {
    "Id": 6627,
    "Title": "Order controller"
  },
  {
    "Id": 6628,
    "Title": "MVC music store documentation - fix link from /Store/Details/500 to /Store/Details/5"
  },
  {
    "Id": 6629,
    "Title": "database sql script errors in the script"
  },
  {
    "Id": 6630,
    "Title": "Bugs in SQL Script"
  },
  {
    "Id": 6631,
    "Title": "Documentation Inconsistency"
  },
  {
    "Id": 6632,
    "Title": "OrderDetail is not saved during checkout in the completed v.2 tutorial"
  },
  {
    "Id": 6633,
    "Title": "Edit functionality doesn't work"
  },
  {
    "Id": 6634,
    "Title": "EFCodeFirst package has been replaced by EntityFramework package"
  },
  {
    "Id": 6635,
    "Title": "Tutorial Suggestion"
  },
  {
    "Id": 6636,
    "Title": "Invalid object name 'dbo.Genres' ..."
  },
  {
    "Id": 6637,
    "Title": "OrderDetails - Missing?"
  },
  {
    "Id": 6638,
    "Title": "Change Html Helper to use Razor @helper declarative helper"
  },
  {
    "Id": 6639,
    "Title": "Documentation contains some references to MVC 2"
  },
  {
    "Id": 6640,
    "Title": "Update documentation to indicate that Ajax.ActionLink is not used"
  },
  {
    "Id": 6641,
    "Title": "SQL Script should include IF EXISTS statements around DROP calls"
  },
  {
    "Id": 6642,
    "Title": "Model classes no longer require partial identifier"
  },
  {
    "Id": 6643,
    "Title": "Can't open project using Visual Studio 2010 ??"
  },
  {
    "Id": 6644,
    "Title": "Wrong Connectionstring name in tutorial"
  },
  {
    "Id": 6645,
    "Title": "v3.0b reference to jQuery 1.4.4"
  },
  {
    "Id": 6646,
    "Title": "Version 3.0 beta (4/13/2011) styling/font issues"
  },
  {
    "Id": 6647,
    "Title": "Isn't SQL Server Express still required?"
  },
  {
    "Id": 6648,
    "Title": "Unable to Update Album"
  },
  {
    "Id": 6649,
    "Title": "Comments on the Tutorial"
  },
  {
    "Id": 6650,
    "Title": "Add content about deployment"
  },
  {
    "Id": 6651,
    "Title": "Album and Artist drop downs on edit page"
  },
  {
    "Id": 6652,
    "Title": "Review / remove comment about using cookies"
  },
  {
    "Id": 6653,
    "Title": "p82 - Changing the namespace for Account files copied in from Assets zip"
  },
  {
    "Id": 6654,
    "Title": "Update script references to match MVC 3 Tools Update"
  },
  {
    "Id": 6655,
    "Title": "Main page needs a LogOff link"
  },
  {
    "Id": 6656,
    "Title": "Microsoft JScript runtime error: '$' is undefined"
  },
  {
    "Id": 6657,
    "Title": "handleUpdate() obsolete?"
  },
  {
    "Id": 6659,
    "Title": "Checkout doesn't work if not using FREE promo code."
  },
  {
    "Id": 6660,
    "Title": "Error first time Running Application After Adding Entity Framework System.Data.Edm.EdmEntityType: : EntityType 'Album' has no key defined. Define the key for this EntityType. "
  },
  {
    "Id": 6661,
    "Title": "Explain What ViewData and how it Differs From ViewBag"
  },
  {
    "Id": 6662,
    "Title": "No tests"
  },
  {
    "Id": 6663,
    "Title": "Edit post action should take ID"
  },
  {
    "Id": 6664,
    "Title": "The edit action in the StoreManagerController "
  },
  {
    "Id": 6665,
    "Title": "'Value cannot be null. Parameter name: source' when adding to cart"
  },
  {
    "Id": 6666,
    "Title": "Typo bottom of page 34"
  },
  {
    "Id": 6668,
    "Title": "StoreController Browse throws an error"
  },
  {
    "Id": 6669,
    "Title": "Microsoft JScript runtime error: Object expected"
  },
  {
    "Id": 6670,
    "Title": "Browse Store Controller"
  },
  {
    "Id": 6671,
    "Title": "Problem with App.Data"
  },
  {
    "Id": 6672,
    "Title": "Data Missing after adding Data Annotations"
  },
  {
    "Id": 6673,
    "Title": "Sample Data File is missing values for Id properties"
  },
  {
    "Id": 6674,
    "Title": "Account/Login instead of Account/LogOn"
  },
  {
    "Id": 6675,
    "Title": "Can't create new account"
  },
  {
    "Id": 6676,
    "Title": "Microsoft JScript runtime error: 'jQuery' is undefined after clicking on edit in the StoreManager"
  },
  {
    "Id": 6677,
    "Title": "storedb (Browse Store Controller)"
  },
  {
    "Id": 6678,
    "Title": "Hello from Store.Details() not being displayed  in browser Excersie 2 Task 3"
  },
  {
    "Id": 6679,
    "Title": "Exercise 5 list not displaying in page."
  },
  {
    "Id": 6680,
    "Title": "Updating the Store Index to query the database"
  },
  {
    "Id": 6681,
    "Title": "Tutorial 3.0b \"not working\" properly"
  },
  {
    "Id": 6682,
    "Title": "RegisterModel password validation should enforce minimum length of 7"
  },
  {
    "Id": 6683,
    "Title": "wrong version of jquery referenced in the completed sample"
  },
  {
    "Id": 6684,
    "Title": "Unhandled exception "
  },
  {
    "Id": 6685,
    "Title": "Error creating StoreManagerController class (VS 2012)"
  },
  {
    "Id": 6686,
    "Title": "Bad jQuery reference"
  },
  {
    "Id": 6687,
    "Title": "Password requires symbol"
  },
  {
    "Id": 6688,
    "Title": "Sequence contains no elements"
  },
  {
    "Id": 6689,
    "Title": "Update Documentation for MVC project"
  },
  {
    "Id": 6690,
    "Title": "got error in mvcmusicstore codeplex code"
  },
  {
    "Id": 6691,
    "Title": "EF error when updating"
  },
  {
    "Id": 6692,
    "Title": "user's personalized data"
  },
  {
    "Id": 6693,
    "Title": "Does it require the key when adding Controller with entity"
  },
  {
    "Id": 6694,
    "Title": "The element entity framework has invalid child element providers."
  },
  {
    "Id": 6695,
    "Title": "The model backing the 'MusicStoreEntities' context has changed since the database was created. Consider using Code First Migrations to update the database."
  },
  {
    "Id": 6696,
    "Title": "Log in page not found"
  },
  {
    "Id": 6697,
    "Title": "Part 10: Album Grid showing wrong alignment"
  },
  {
    "Id": 6698,
    "Title": "MVC Music Store"
  },
  {
    "Id": 6699,
    "Title": "music store example error in creating shopping cart index view"
  },
  {
    "Id": 6700,
    "Title": "DB appears to be empty"
  },
  {
    "Id": 6701,
    "Title": "Part 4 connectionString"
  },
  {
    "Id": 6702,
    "Title": "Part 5 edit details application error "
  },
  {
    "Id": 6703,
    "Title": "Unable to populate dropdown list"
  },
  {
    "Id": 6704,
    "Title": "'MvcMusicStore.Models' already contains a definition for 'Cart'\tC"
  },
  {
    "Id": 6705,
    "Title": "Part 5: Issue when creating StoreManagerController"
  },
  {
    "Id": 6706,
    "Title": "password compare"
  },
  {
    "Id": 6707,
    "Title": "uploading of actual pictures"
  },
  {
    "Id": 6708,
    "Title": "Part 5 - Edit Forms Using Scaffolding"
  }
]