{
  "WorkItem": {
    "AffectedComponent": {
      "Name": "",
      "DisplayName": ""
    },
    "ClosedComment": "",
    "ClosedDate": null,
    "CommentCount": 3,
    "Custom": null,
    "Description": "  var genreModel = storeDB.Genres.Include(\"Albums\")\r\n.Single(g => g.Name == genre);\r\nreturn View(genreModel);\r\n\r\n\r\nI am getting error message 'Sequence contains no elements'\r\nWhat am I missing here?",
    "LastUpdatedDate": "2014-03-13T00:53:23.93-07:00",
    "PlannedForRelease": "",
    "ReleaseVisibleToPublic": false,
    "Priority": {
      "Name": "Unassigned",
      "Severity": 0,
      "Id": 0
    },
    "ProjectName": "mvcmusicstore",
    "ReportedDate": "2013-03-30T19:28:27.55-07:00",
    "Status": {
      "Name": "Proposed",
      "Id": 1
    },
    "ReasonClosed": {
      "Name": "Unassigned"
    },
    "Summary": "Sequence contains no elements",
    "Type": {
      "Name": "Issue",
      "Id": 3
    },
    "VoteCount": 3,
    "Id": 6688
  },
  "FileAttachments": [],
  "Comments": [
    {
      "Message": "Because the genre that you are passing in query string doesn't exist in sample data file. Query return no record to genreModel. Try to enter some genre that is defined in sample data file. \n",
      "PostedDate": "2014-02-25T11:32:51.233-08:00",
      "Id": 134689
    },
    {
      "Message": "I have the same issue: \nvar genreModel = storeDB.Genres.Include(\"Albums\")\n.Single(g => g.Name == genre);\nreturn View(genreModel); \n\non the url /Store/Browse?genre=Jazz\n\nIn fact, 'Jazz' is in the sample data file. \n\nAlso, when browsing /Store, none of the genres are returned. \nIt seems that none of the data gets loaded from the sample data file. \n\n",
      "PostedDate": "2014-03-13T00:36:58.003-07:00",
      "Id": 136715
    },
    {
      "Message": "I think I found the answer to this one...\n\nThere is a 2nd web.config under the Views folder. When I add the connectionString code from the tutorial to this 2nd web.config in addition to the first web.config file, I now have data and no longer get the \"Sequence contains no elements\" exception. \n\n ",
      "PostedDate": "2014-03-13T00:53:23.93-07:00",
      "Id": 136718
    }
  ]
}