{
  "WorkItem": {
    "AffectedComponent": {
      "Name": "",
      "DisplayName": ""
    },
    "ClosedComment": "",
    "ClosedDate": null,
    "CommentCount": 0,
    "Custom": null,
    "Description": "For Store -> Browse ; URL is http://localhost:50114/store/browse?genre=disco.\r\nFor Store -> Details ; URL is http://localhost:50114/store/details/5.\r\nI am not getting why we need to use query string in case of Browse and passing a id value directly in case of Details?\r\n\r\n** I am very novice(learning stage) for MVC.",
    "LastUpdatedDate": "2011-12-04T22:59:12.96-08:00",
    "PlannedForRelease": "",
    "ReleaseVisibleToPublic": false,
    "Priority": {
      "Name": "Low",
      "Severity": 50,
      "Id": 1
    },
    "ProjectName": "mvcmusicstore",
    "ReportedDate": "2011-12-04T22:59:12.96-08:00",
    "Status": {
      "Name": "Proposed",
      "Id": 1
    },
    "ReasonClosed": {
      "Name": "Unassigned"
    },
    "Summary": "Browse Store Controller",
    "Type": {
      "Name": "Issue",
      "Id": 3
    },
    "VoteCount": 1,
    "Id": 6670
  },
  "FileAttachments": [],
  "Comments": []
}